2014-02-05 11:41:44    create css/main.css 
2014-02-05 11:41:58 overwrite css/main.css 
2014-02-05 11:43:14 identical css/main.css 
2014-02-05 11:43:23 overwrite css/main.css 
2014-02-05 11:43:36 overwrite css/main.css 
2014-02-05 11:43:45 overwrite css/main.css 
2014-02-05 11:43:47 identical css/main.css 
2014-02-05 11:44:12 overwrite css/main.css 
2014-02-05 11:48:33 overwrite css/main.css 
2014-02-05 11:48:40 overwrite css/main.css 
2014-02-05 11:48:42 overwrite css/main.css 
2014-02-05 11:49:33    remove .sass-cache/ 
2014-02-05 11:49:33    remove css/main.css 
2014-02-05 11:49:37    create css/main.css 
2014-02-05 11:53:23    remove .sass-cache/ 
2014-02-05 11:53:23    remove css/main.css 
2014-02-05 11:53:27    create css/main.css 
2014-02-05 11:54:40 identical css/main.css 
2014-02-05 11:54:50 identical css/main.css 
2014-02-05 11:55:09 overwrite css/main.css 
2014-02-05 11:55:11 overwrite css/main.css 
2014-02-05 11:57:59 overwrite css/main.css 
2014-02-05 12:00:33 identical css/main.css 
2014-02-05 12:01:11 identical css/main.css 
2014-02-05 12:01:28 identical css/main.css 
2014-02-05 12:03:06 overwrite css/main.css 
2014-02-05 12:03:16 overwrite css/main.css 
2014-02-05 12:04:19 identical css/main.css 
2014-02-05 12:04:31 overwrite css/main.css 
2014-02-05 12:04:38 overwrite css/main.css 
2014-02-05 12:07:31 identical stylesheets/grid.css 
2014-02-05 12:07:34    create stylesheets/main.css 
2014-02-05 12:07:34 identical stylesheets/text.css 
2014-02-05 12:10:54    remove .sass-cache/ 
2014-02-05 12:10:54    remove stylesheets/main.css 
2014-02-05 12:10:57    create stylesheets/main.css 
2014-02-05 12:11:24 overwrite stylesheets/main.css 
2014-02-05 13:07:01 overwrite stylesheets/main.css 
2014-02-05 13:07:12 overwrite stylesheets/main.css 
2014-02-05 13:11:14 overwrite stylesheets/main.css 
2014-02-05 13:26:01 overwrite stylesheets/main.css 
2014-02-05 13:27:12 overwrite stylesheets/main.css 
2014-02-05 13:27:49 overwrite stylesheets/main.css 
2014-02-05 13:49:34 overwrite stylesheets/main.css 
2014-02-05 13:55:39 overwrite stylesheets/main.css 
2014-02-05 13:55:49 overwrite stylesheets/main.css 
2014-02-05 13:59:37     error sass/main.scss (Line 31 of sass/_type.scss: Undefined variable: "$white".)
2014-02-05 13:59:37 overwrite stylesheets/main.css 
2014-02-05 13:59:48 overwrite stylesheets/main.css 
2014-02-05 14:00:42 overwrite stylesheets/main.css 
2014-02-05 14:00:58 overwrite stylesheets/main.css 
2014-02-05 14:01:46 overwrite stylesheets/main.css 
2014-02-05 14:02:19 overwrite stylesheets/main.css 
2014-02-05 14:02:24     error sass/main.scss (Line 17 of sass/_product.scss: Undefined variable: "$margin".)
2014-02-05 14:02:24 overwrite stylesheets/main.css 
2014-02-05 14:02:44 overwrite stylesheets/main.css 
2014-02-05 14:02:46 overwrite stylesheets/main.css 
2014-02-05 14:03:00 overwrite stylesheets/main.css 
2014-02-05 14:03:58 overwrite stylesheets/main.css 
2014-02-05 14:04:01 identical stylesheets/main.css 
2014-02-05 14:04:15 overwrite stylesheets/main.css 
2014-02-05 14:04:26 overwrite stylesheets/main.css 
2014-02-05 14:04:41 overwrite stylesheets/main.css 
2014-02-05 14:04:44 overwrite stylesheets/main.css 
2014-02-05 14:04:51 overwrite stylesheets/main.css 
2014-02-05 14:06:13 overwrite stylesheets/main.css 
2014-02-05 14:06:20 overwrite stylesheets/main.css 
2014-02-05 14:06:46 overwrite stylesheets/main.css 
2014-02-05 14:07:14 overwrite stylesheets/main.css 
2014-02-05 14:07:53 overwrite stylesheets/main.css 
2014-02-05 14:08:13 overwrite stylesheets/main.css 
2014-02-05 14:08:27 overwrite stylesheets/main.css 
2014-02-05 14:08:32 overwrite stylesheets/main.css 
2014-02-05 14:08:37 overwrite stylesheets/main.css 
2014-02-05 14:08:48 overwrite stylesheets/main.css 
2014-02-05 14:09:00 overwrite stylesheets/main.css 
2014-02-05 14:09:32     error sass/main.scss (Line 96 of sass/_product.scss: Undefined variable: "$border-rad".)
2014-02-05 14:09:32 overwrite stylesheets/main.css 
2014-02-05 14:09:41 overwrite stylesheets/main.css 
2014-02-05 14:10:43 overwrite stylesheets/main.css 
2014-02-05 14:10:59 overwrite stylesheets/main.css 
2014-02-05 14:11:09     error sass/main.scss (Line 74 of sass/_product.scss: Invalid CSS after "    border-radi": expected "{", was "}")
2014-02-05 14:11:09 overwrite stylesheets/main.css 
2014-02-05 14:11:12 overwrite stylesheets/main.css 
2014-02-05 14:11:21 overwrite stylesheets/main.css 
2014-02-05 14:19:47 overwrite stylesheets/main.css 
2014-02-05 14:19:53 overwrite stylesheets/main.css 
2014-02-05 14:20:02 overwrite stylesheets/main.css 
2014-02-05 14:20:08 overwrite stylesheets/main.css 
2014-02-05 14:20:15 overwrite stylesheets/main.css 
2014-02-05 14:21:19 overwrite stylesheets/main.css 
2014-02-05 14:21:42 overwrite stylesheets/main.css 
2014-02-05 14:21:55 overwrite stylesheets/main.css 
2014-02-05 14:22:11 overwrite stylesheets/main.css 
2014-02-05 14:23:27 overwrite stylesheets/main.css 
2014-02-05 14:23:50 overwrite stylesheets/main.css 
2014-02-05 14:24:00 overwrite stylesheets/main.css 
2014-02-05 14:24:07 overwrite stylesheets/main.css 
2014-02-05 14:28:53 overwrite stylesheets/main.css 
2014-02-05 14:29:31 overwrite stylesheets/main.css 
2014-02-05 14:36:58 overwrite stylesheets/main.css 
2014-02-05 14:37:07 overwrite stylesheets/main.css 
2014-02-05 14:37:38 overwrite stylesheets/main.css 
2014-02-05 14:37:40 overwrite stylesheets/main.css 
2014-02-05 14:40:25 overwrite stylesheets/main.css 
2014-02-05 14:42:34 overwrite stylesheets/main.css 
2014-02-05 14:42:43 overwrite stylesheets/main.css 
2014-02-05 14:42:52 overwrite stylesheets/main.css 
2014-02-05 14:43:16 overwrite stylesheets/main.css 
2014-02-05 14:43:19 identical stylesheets/main.css 
2014-02-05 14:43:27 identical stylesheets/main.css 
2014-02-05 14:43:59 overwrite stylesheets/main.css 
2014-02-05 14:44:30     error sass/main.scss (Line 42 of sass/_colourways.scss: Invalid CSS after "  left:50%;": expected "}", was "]")
2014-02-05 14:44:30 overwrite stylesheets/main.css 
2014-02-05 14:44:36 overwrite stylesheets/main.css 
2014-02-05 14:44:46 overwrite stylesheets/main.css 
2014-02-05 14:44:54 overwrite stylesheets/main.css 
2014-02-05 14:45:04 overwrite stylesheets/main.css 
2014-02-05 14:45:12 overwrite stylesheets/main.css 
2014-02-05 14:45:24 overwrite stylesheets/main.css 
2014-02-05 14:45:33 overwrite stylesheets/main.css 
2014-02-05 15:36:03 overwrite stylesheets/main.css 
2014-02-05 15:36:15 overwrite stylesheets/main.css 
2014-02-05 15:40:07 overwrite stylesheets/main.css 
2014-02-05 15:40:33 overwrite stylesheets/main.css 
2014-02-05 15:44:56 overwrite stylesheets/main.css 
2014-02-05 15:45:05 overwrite stylesheets/main.css 
2014-02-05 15:45:13 overwrite stylesheets/main.css 
2014-02-05 15:45:32 overwrite stylesheets/main.css 
2014-02-05 15:46:03 overwrite stylesheets/main.css 
2014-02-05 15:47:32 overwrite stylesheets/main.css 
2014-02-05 15:47:37 overwrite stylesheets/main.css 
2014-02-05 15:48:08 overwrite stylesheets/main.css 
2014-02-05 15:48:29 overwrite stylesheets/main.css 
2014-02-05 15:48:48 overwrite stylesheets/main.css 
2014-02-05 16:02:59 overwrite stylesheets/main.css 
2014-02-05 16:05:39 overwrite stylesheets/main.css 
2014-02-05 16:06:11 overwrite stylesheets/main.css 
2014-02-05 16:06:57 overwrite stylesheets/main.css 
2014-02-05 16:07:18 overwrite stylesheets/main.css 
2014-02-05 16:08:33 overwrite stylesheets/main.css 
2014-02-05 16:19:22 overwrite stylesheets/main.css 
2014-02-05 16:20:32 overwrite stylesheets/main.css 
2014-02-05 16:23:35 overwrite stylesheets/main.css 
2014-02-05 16:23:41 overwrite stylesheets/main.css 
2014-02-05 16:24:10 overwrite stylesheets/main.css 
2014-02-05 16:24:18 overwrite stylesheets/main.css 
2014-02-05 16:24:30 overwrite stylesheets/main.css 
2014-02-05 16:24:45 overwrite stylesheets/main.css 
2014-02-05 16:26:18 overwrite stylesheets/main.css 
2014-02-05 16:26:27 overwrite stylesheets/main.css 
2014-02-05 16:29:28 overwrite stylesheets/main.css 
2014-02-05 16:32:42 overwrite stylesheets/main.css 
2014-02-05 16:44:10     error sass/main.scss (Line 119 of sass/_product.scss: Invalid CSS after "}": expected selector or at-rule, was "}")
2014-02-05 16:44:10 overwrite stylesheets/main.css 
2014-02-05 16:44:33 overwrite stylesheets/main.css 
2014-02-05 16:51:37 overwrite stylesheets/main.css 
2014-02-05 16:58:27 overwrite stylesheets/main.css 
2014-02-05 16:58:34     error sass/main.scss (Line 141 of sass/_header.scss: Invalid CSS after "}": expected selector or at-rule, was "}")
2014-02-05 16:58:34 overwrite stylesheets/main.css 
2014-02-05 16:58:47     error sass/main.scss (Line 146 of sass/_header.scss: Invalid CSS after "}": expected selector or at-rule, was "}")
2014-02-05 16:58:47 overwrite stylesheets/main.css 
2014-02-05 16:58:51 overwrite stylesheets/main.css 
2014-02-05 17:03:56 overwrite stylesheets/main.css 
2014-02-05 17:04:03 overwrite stylesheets/main.css 
2014-02-05 17:05:09 identical stylesheets/main.css 
2014-02-05 17:06:10 identical stylesheets/main.css 
2014-02-05 17:11:27 overwrite stylesheets/main.css 
2014-02-05 17:11:37 overwrite stylesheets/main.css 
2014-02-05 17:11:51 overwrite stylesheets/main.css 
2014-02-05 17:13:09 overwrite stylesheets/main.css 
2014-02-06 09:38:27 overwrite stylesheets/main.css 
2014-02-06 09:38:32 overwrite stylesheets/main.css 
2014-02-06 09:38:46 overwrite stylesheets/main.css 
2014-02-06 09:38:57 overwrite stylesheets/main.css 
2014-02-06 09:48:43 overwrite stylesheets/main.css 
2014-02-06 09:52:20 overwrite stylesheets/main.css 
2014-02-06 09:52:36 overwrite stylesheets/main.css 
2014-02-06 09:52:38 identical stylesheets/main.css 
2014-02-06 09:52:53 overwrite stylesheets/main.css 
2014-02-06 09:53:07 overwrite stylesheets/main.css 
2014-02-06 09:53:14 overwrite stylesheets/main.css 
2014-02-06 09:54:28 overwrite stylesheets/main.css 
2014-02-06 09:55:30 overwrite stylesheets/main.css 
2014-02-06 09:55:43 overwrite stylesheets/main.css 
2014-02-06 10:06:44 identical stylesheets/main.css 
2014-02-06 10:07:04 overwrite stylesheets/main.css 
2014-02-06 10:07:28 overwrite stylesheets/main.css 
2014-02-06 10:07:37 overwrite stylesheets/main.css 
2014-02-06 10:15:09 overwrite stylesheets/main.css 
2014-02-06 10:15:42 overwrite stylesheets/main.css 
2014-02-06 10:15:57 overwrite stylesheets/main.css 
2014-02-06 10:17:47 overwrite stylesheets/main.css 
2014-02-06 10:18:16 overwrite stylesheets/main.css 
2014-02-06 10:20:17 overwrite stylesheets/main.css 
2014-02-06 10:20:29 identical stylesheets/main.css 
2014-02-06 10:20:37 overwrite stylesheets/main.css 
2014-02-06 10:20:49 overwrite stylesheets/main.css 
2014-02-06 10:20:56 overwrite stylesheets/main.css 
2014-02-06 10:21:04 overwrite stylesheets/main.css 
2014-02-06 10:23:15 overwrite stylesheets/main.css 
2014-02-06 10:23:36 overwrite stylesheets/main.css 
2014-02-06 10:26:05 overwrite stylesheets/main.css 
2014-02-06 10:26:18 overwrite stylesheets/main.css 
2014-02-06 10:26:29 overwrite stylesheets/main.css 
2014-02-06 10:27:15 overwrite stylesheets/main.css 
2014-02-06 10:27:25 overwrite stylesheets/main.css 
2014-02-06 10:27:33 overwrite stylesheets/main.css 
2014-02-06 11:01:40 overwrite stylesheets/main.css 
2014-02-06 11:03:13 overwrite stylesheets/main.css 
2014-02-06 11:06:11 overwrite stylesheets/main.css 
2014-02-06 11:06:19 overwrite stylesheets/main.css 
2014-02-06 11:06:26 overwrite stylesheets/main.css 
2014-02-06 11:07:10 overwrite stylesheets/main.css 
2014-02-06 11:07:27 overwrite stylesheets/main.css 
2014-02-06 11:07:37 overwrite stylesheets/main.css 
2014-02-06 11:08:29 overwrite stylesheets/main.css 
2014-02-06 11:08:52 overwrite stylesheets/main.css 
2014-02-06 11:10:34 overwrite stylesheets/main.css 
2014-02-06 11:13:50 overwrite stylesheets/main.css 
2014-02-06 11:15:18 overwrite stylesheets/main.css 
2014-02-06 11:15:30 overwrite stylesheets/main.css 
2014-02-06 11:15:36 overwrite stylesheets/main.css 
2014-02-06 11:15:45 identical stylesheets/main.css 
2014-02-06 11:15:55 overwrite stylesheets/main.css 
2014-02-06 11:16:27 overwrite stylesheets/main.css 
2014-02-06 11:16:42 overwrite stylesheets/main.css 
2014-02-06 11:16:56 overwrite stylesheets/main.css 
2014-02-06 11:17:02 overwrite stylesheets/main.css 
2014-02-06 11:19:58 overwrite stylesheets/main.css 
2014-02-06 11:20:08 overwrite stylesheets/main.css 
2014-02-06 11:20:16 identical stylesheets/main.css 
2014-02-06 11:20:33 overwrite stylesheets/main.css 
2014-02-06 11:20:58 overwrite stylesheets/main.css 
2014-02-06 11:21:26 overwrite stylesheets/main.css 
2014-02-06 11:21:32 overwrite stylesheets/main.css 
2014-02-06 11:21:41 overwrite stylesheets/main.css 
2014-02-06 11:23:28 overwrite stylesheets/main.css 
2014-02-06 11:23:48 overwrite stylesheets/main.css 
2014-02-06 11:24:04 overwrite stylesheets/main.css 
2014-02-06 11:24:32 overwrite stylesheets/main.css 
2014-02-06 11:24:43 overwrite stylesheets/main.css 
2014-02-06 11:24:51 overwrite stylesheets/main.css 
2014-02-06 11:25:19 overwrite stylesheets/main.css 
2014-02-06 11:25:41 overwrite stylesheets/main.css 
2014-02-06 11:25:52 overwrite stylesheets/main.css 
2014-02-06 11:26:11 overwrite stylesheets/main.css 
2014-02-06 11:26:16 overwrite stylesheets/main.css 
2014-02-06 11:26:35 overwrite stylesheets/main.css 
2014-02-06 11:26:40 overwrite stylesheets/main.css 
2014-02-06 14:42:39 overwrite stylesheets/main.css 
2014-02-06 14:43:16 overwrite stylesheets/main.css 
2014-02-06 15:45:31 overwrite stylesheets/main.css 
2014-02-06 16:41:07 overwrite stylesheets/main.css 
2014-02-06 16:41:18 overwrite stylesheets/main.css 
2014-02-06 16:41:21 overwrite stylesheets/main.css 
2014-02-06 16:41:28 overwrite stylesheets/main.css 
2014-02-06 16:41:37 overwrite stylesheets/main.css 
2014-02-06 16:41:48 overwrite stylesheets/main.css 
2014-02-06 16:41:53 overwrite stylesheets/main.css 
2014-02-06 16:42:05 overwrite stylesheets/main.css 
2014-02-06 16:42:15 overwrite stylesheets/main.css 
2014-02-06 16:42:43 overwrite stylesheets/main.css 
2014-02-06 16:44:32 overwrite stylesheets/main.css 
2014-02-06 16:45:56 overwrite stylesheets/main.css 
2014-02-06 16:47:03 overwrite stylesheets/main.css 
2014-02-06 16:54:13 overwrite stylesheets/main.css 
2014-02-07 09:38:20 overwrite stylesheets/main.css 
2014-02-07 09:38:32 overwrite stylesheets/main.css 
2014-02-07 09:38:55 overwrite stylesheets/main.css 
2014-02-07 09:48:29 overwrite stylesheets/main.css 
2014-02-07 09:48:46 overwrite stylesheets/main.css 
2014-02-07 09:50:54 overwrite stylesheets/main.css 
2014-02-07 09:51:07 overwrite stylesheets/main.css 
2014-02-07 09:51:18 overwrite stylesheets/main.css 
2014-02-07 09:51:23 overwrite stylesheets/main.css 
2014-02-07 10:32:53 overwrite stylesheets/main.css 
2014-02-07 10:33:23 overwrite stylesheets/main.css 
2014-02-07 10:38:35 overwrite stylesheets/main.css 
2014-02-07 10:39:26 overwrite stylesheets/main.css 
2014-02-07 10:42:25 overwrite stylesheets/main.css 
2014-02-07 10:48:35 overwrite stylesheets/main.css 
2014-02-07 10:48:55 overwrite stylesheets/main.css 
2014-02-07 10:49:20 overwrite stylesheets/main.css 
2014-02-07 10:49:33 overwrite stylesheets/main.css 
2014-02-07 10:49:49 overwrite stylesheets/main.css 
2014-02-07 10:50:39 overwrite stylesheets/main.css 
2014-02-07 10:50:47 overwrite stylesheets/main.css 
2014-02-07 10:50:57 overwrite stylesheets/main.css 
2014-02-07 10:51:07 overwrite stylesheets/main.css 
2014-02-07 10:53:45 overwrite stylesheets/main.css 
2014-02-07 10:54:50 overwrite stylesheets/main.css 
2014-02-07 10:55:32 overwrite stylesheets/main.css 
2014-02-07 10:55:59 overwrite stylesheets/main.css 
2014-02-07 10:56:07 overwrite stylesheets/main.css 
2014-02-07 10:56:21 overwrite stylesheets/main.css 
2014-02-07 10:56:36 overwrite stylesheets/main.css 
2014-02-07 10:56:46 overwrite stylesheets/main.css 
2014-02-07 10:57:16 overwrite stylesheets/main.css 
2014-02-07 10:57:36 overwrite stylesheets/main.css 
2014-02-07 10:57:42 overwrite stylesheets/main.css 
2014-02-07 10:57:56 overwrite stylesheets/main.css 
2014-02-07 10:58:08 overwrite stylesheets/main.css 
2014-02-07 10:58:32 overwrite stylesheets/main.css 
2014-02-07 10:58:45 overwrite stylesheets/main.css 
2014-02-07 11:02:21 overwrite stylesheets/main.css 
2014-02-07 11:04:03 overwrite stylesheets/main.css 
2014-02-07 11:05:00 overwrite stylesheets/main.css 
2014-02-07 11:05:07 overwrite stylesheets/main.css 
2014-02-07 11:05:19 overwrite stylesheets/main.css 
2014-02-07 11:05:35 overwrite stylesheets/main.css 
2014-02-07 11:05:41 overwrite stylesheets/main.css 
2014-02-07 11:05:56 overwrite stylesheets/main.css 
2014-02-07 11:08:06 overwrite stylesheets/main.css 
2014-02-07 11:12:51 overwrite stylesheets/main.css 
2014-02-07 11:12:58 overwrite stylesheets/main.css 
2014-02-07 11:13:26 overwrite stylesheets/main.css 
2014-02-07 11:13:42 overwrite stylesheets/main.css 
2014-02-07 11:14:06     error sass/main.scss (Line 44 of sass/_payment.scss: Invalid CSS after "  input": expected "{", was "}")
2014-02-07 11:14:06 overwrite stylesheets/main.css 
2014-02-07 11:14:27 overwrite stylesheets/main.css 
2014-02-07 11:14:41 overwrite stylesheets/main.css 
2014-02-07 11:14:47 overwrite stylesheets/main.css 
2014-02-07 11:14:53 overwrite stylesheets/main.css 
2014-02-07 11:15:13 overwrite stylesheets/main.css 
2014-02-07 11:15:24 overwrite stylesheets/main.css 
2014-02-07 11:15:34 overwrite stylesheets/main.css 
2014-02-07 11:15:43 overwrite stylesheets/main.css 
2014-02-07 11:15:50 overwrite stylesheets/main.css 
2014-02-07 11:22:08 overwrite stylesheets/main.css 
2014-02-07 11:22:21 overwrite stylesheets/main.css 
2014-02-07 11:22:48 overwrite stylesheets/main.css 
2014-02-07 11:23:00 overwrite stylesheets/main.css 
2014-02-07 11:23:41 overwrite stylesheets/main.css 
2014-02-07 11:23:48 overwrite stylesheets/main.css 
2014-02-07 11:23:56 overwrite stylesheets/main.css 
2014-02-07 11:24:01 overwrite stylesheets/main.css 
2014-02-07 11:24:30 overwrite stylesheets/main.css 
2014-02-07 11:24:50 overwrite stylesheets/main.css 
2014-02-07 11:25:12 overwrite stylesheets/main.css 
2014-02-07 11:25:41 overwrite stylesheets/main.css 
2014-02-07 11:25:54 overwrite stylesheets/main.css 
2014-02-07 11:26:33 overwrite stylesheets/main.css 
2014-02-07 11:27:13 overwrite stylesheets/main.css 
2014-02-07 11:29:23 overwrite stylesheets/main.css 
2014-02-07 11:29:30 overwrite stylesheets/main.css 
2014-02-07 11:29:35 overwrite stylesheets/main.css 
2014-02-07 11:30:08 overwrite stylesheets/main.css 
2014-02-07 11:30:42 overwrite stylesheets/main.css 
2014-02-07 11:31:30 overwrite stylesheets/main.css 
2014-02-07 11:31:51 overwrite stylesheets/main.css 
2014-02-07 11:32:11 overwrite stylesheets/main.css 
2014-02-07 11:32:33 overwrite stylesheets/main.css 
2014-02-07 11:32:42 overwrite stylesheets/main.css 
2014-02-07 11:32:55 overwrite stylesheets/main.css 
2014-02-07 11:33:02 identical stylesheets/main.css 
2014-02-07 11:36:28 overwrite stylesheets/main.css 
2014-02-07 11:37:16 overwrite stylesheets/main.css 
2014-02-07 11:39:56 overwrite stylesheets/main.css 
2014-02-07 11:41:45 overwrite stylesheets/main.css 
2014-02-07 11:44:41 overwrite stylesheets/main.css 
2014-02-07 11:45:50 overwrite stylesheets/main.css 
2014-02-07 11:46:55 overwrite stylesheets/main.css 
2014-02-07 11:47:03 overwrite stylesheets/main.css 
2014-02-07 11:47:34 overwrite stylesheets/main.css 
2014-02-07 11:48:04 overwrite stylesheets/main.css 
2014-02-07 11:49:25 overwrite stylesheets/main.css 
2014-02-07 11:49:33 overwrite stylesheets/main.css 
2014-02-07 11:49:52 overwrite stylesheets/main.css 
2014-02-07 11:50:04 overwrite stylesheets/main.css 
2014-02-07 11:50:18 overwrite stylesheets/main.css 
2014-02-07 13:07:12 identical stylesheets/main.css 
2014-02-07 13:39:21 overwrite stylesheets/main.css 
2014-02-07 13:40:22 overwrite stylesheets/main.css 
2014-02-07 13:40:33 overwrite stylesheets/main.css 
2014-02-07 13:40:57 overwrite stylesheets/main.css 
2014-02-07 13:41:00 overwrite stylesheets/main.css 
2014-02-07 13:43:20 overwrite stylesheets/main.css 
2014-02-07 13:43:45 overwrite stylesheets/main.css 
2014-02-07 13:49:50 overwrite stylesheets/main.css 
2014-02-07 13:49:56 overwrite stylesheets/main.css 
2014-02-07 13:50:09 overwrite stylesheets/main.css 
2014-02-07 15:43:18 overwrite stylesheets/main.css 
2014-02-07 16:18:31 overwrite stylesheets/main.css 
2014-02-07 16:22:06 overwrite stylesheets/main.css 
2014-02-07 16:22:35 overwrite stylesheets/main.css 
2014-02-07 16:22:39 overwrite stylesheets/main.css 
2014-02-07 16:23:36 overwrite stylesheets/main.css 
2014-02-07 16:24:25 overwrite stylesheets/main.css 
2014-02-07 16:25:29 overwrite stylesheets/main.css 
2014-02-07 16:25:43 overwrite stylesheets/main.css 
2014-02-07 16:25:56 overwrite stylesheets/main.css 
2014-02-07 16:26:15 overwrite stylesheets/main.css 
2014-02-07 16:26:17 overwrite stylesheets/main.css 
2014-02-07 16:49:28 overwrite stylesheets/main.css 
2014-02-07 16:50:07 overwrite stylesheets/main.css 
2014-02-07 16:59:48     error sass/main.scss (Line 7 of sass/_breadcrumb.scss: Undefined variable: "$light-grey".)
2014-02-07 16:59:48 overwrite stylesheets/main.css 
2014-02-07 17:00:08     error sass/main.scss (Line 17 of sass/_breadcrumb.scss: Undefined variable: "$light-grey".)
2014-02-07 17:00:08 overwrite stylesheets/main.css 
2014-02-07 17:00:24     error sass/main.scss (Line 30 of sass/_breadcrumb.scss: Undefined variable: "$green".)
2014-02-07 17:00:24 overwrite stylesheets/main.css 
2014-02-07 17:00:37 overwrite stylesheets/main.css 
2014-02-07 17:03:06 overwrite stylesheets/main.css 
2014-02-07 17:26:51 overwrite stylesheets/main.css 
2014-02-07 17:29:08 overwrite stylesheets/main.css 
2014-02-07 17:31:21 overwrite stylesheets/main.css 
2014-02-07 17:31:31 overwrite stylesheets/main.css 
2014-02-07 17:36:10 overwrite stylesheets/main.css 
2014-02-07 17:36:25 overwrite stylesheets/main.css 
2014-02-07 17:38:25 overwrite stylesheets/main.css 
2014-02-07 17:38:56 overwrite stylesheets/main.css 
2014-02-07 17:39:06 overwrite stylesheets/main.css 
2014-02-07 17:39:47 overwrite stylesheets/main.css 
2014-02-07 17:39:55 overwrite stylesheets/main.css 
2014-02-07 17:40:34 overwrite stylesheets/main.css 
2014-02-07 17:40:48 overwrite stylesheets/main.css 
2014-02-07 17:41:14 overwrite stylesheets/main.css 
2014-02-07 17:41:23 overwrite stylesheets/main.css 
2014-02-07 17:43:13 overwrite stylesheets/main.css 
2014-02-07 17:43:23 overwrite stylesheets/main.css 
2014-02-07 17:43:37 overwrite stylesheets/main.css 
2014-02-07 17:43:53 overwrite stylesheets/main.css 
2014-02-07 17:44:00 overwrite stylesheets/main.css 
2014-02-07 17:44:07 overwrite stylesheets/main.css 
2014-02-07 17:44:22 overwrite stylesheets/main.css 
2014-02-07 17:44:37 overwrite stylesheets/main.css 
2014-02-07 17:45:20 overwrite stylesheets/main.css 
2014-02-07 17:46:07 overwrite stylesheets/main.css 
2014-02-07 17:46:27 overwrite stylesheets/main.css 
2014-02-07 18:08:16 overwrite stylesheets/main.css 
2014-02-07 18:09:18 overwrite stylesheets/main.css 
2014-02-07 18:09:25 overwrite stylesheets/main.css 
2014-02-07 18:09:37 overwrite stylesheets/main.css 
2014-02-07 18:09:51 overwrite stylesheets/main.css 
2014-02-07 18:09:58 overwrite stylesheets/main.css 
2014-02-07 18:10:40 overwrite stylesheets/main.css 
2014-02-07 18:10:53 overwrite stylesheets/main.css 
2014-02-07 18:11:24 overwrite stylesheets/main.css 
2014-02-07 18:12:10 overwrite stylesheets/main.css 
2014-02-07 18:12:15 overwrite stylesheets/main.css 
2014-02-10 09:16:51 overwrite stylesheets/main.css 
2014-02-10 09:36:19 overwrite stylesheets/main.css 
2014-02-10 09:36:36 overwrite stylesheets/main.css 
2014-02-10 09:37:30 identical stylesheets/main.css 
2014-02-10 09:37:42 overwrite stylesheets/main.css 
2014-02-10 09:38:07 overwrite stylesheets/main.css 
2014-02-10 09:38:26 overwrite stylesheets/main.css 
2014-02-10 09:38:48 overwrite stylesheets/main.css 
2014-02-10 09:38:52 overwrite stylesheets/main.css 
2014-02-10 09:39:43 identical stylesheets/main.css 
2014-02-10 09:42:43 overwrite stylesheets/main.css 
2014-02-10 09:42:52 overwrite stylesheets/main.css 
2014-02-10 09:47:23 overwrite stylesheets/main.css 
2014-02-10 09:47:32 overwrite stylesheets/main.css 
2014-02-10 09:47:38 overwrite stylesheets/main.css 
2014-02-10 09:58:34 overwrite stylesheets/main.css 
2014-02-10 09:58:54 overwrite stylesheets/main.css 
2014-02-10 09:59:02 overwrite stylesheets/main.css 
2014-02-10 09:59:05 overwrite stylesheets/main.css 
2014-02-10 09:59:12 overwrite stylesheets/main.css 
2014-02-10 09:59:39 overwrite stylesheets/main.css 
2014-02-10 09:59:56 overwrite stylesheets/main.css 
2014-02-10 10:01:18 overwrite stylesheets/main.css 
2014-02-10 10:01:37 overwrite stylesheets/main.css 
2014-02-10 10:02:21 overwrite stylesheets/main.css 
2014-02-10 10:02:37 overwrite stylesheets/main.css 
2014-02-10 10:02:42 overwrite stylesheets/main.css 
2014-02-10 10:02:48 overwrite stylesheets/main.css 
2014-02-10 10:02:50 identical stylesheets/main.css 
2014-02-10 10:03:04 overwrite stylesheets/main.css 
2014-02-10 10:03:45 overwrite stylesheets/main.css 
2014-02-10 10:04:13 overwrite stylesheets/main.css 
2014-02-10 10:04:37 overwrite stylesheets/main.css 
2014-02-10 10:09:56 overwrite stylesheets/main.css 
2014-02-10 10:10:10 overwrite stylesheets/main.css 
2014-02-10 10:11:44 overwrite stylesheets/main.css 
2014-02-10 10:13:24 overwrite stylesheets/main.css 
2014-02-10 10:13:51 overwrite stylesheets/main.css 
2014-02-10 10:14:23 overwrite stylesheets/main.css 
2014-02-10 10:15:03 overwrite stylesheets/main.css 
2014-02-10 10:15:26 overwrite stylesheets/main.css 
2014-02-10 10:16:03 overwrite stylesheets/main.css 
2014-02-10 10:16:25 overwrite stylesheets/main.css 
2014-02-10 10:16:36 overwrite stylesheets/main.css 
2014-02-10 10:17:10 overwrite stylesheets/main.css 
2014-02-10 10:17:57 overwrite stylesheets/main.css 
2014-02-10 10:18:10 overwrite stylesheets/main.css 
2014-02-10 10:23:19 overwrite stylesheets/main.css 
2014-02-10 10:23:30 overwrite stylesheets/main.css 
2014-02-10 10:24:53 overwrite stylesheets/main.css 
2014-02-10 10:25:05 overwrite stylesheets/main.css 
2014-02-10 10:25:19 overwrite stylesheets/main.css 
2014-02-10 10:25:28 overwrite stylesheets/main.css 
2014-02-10 10:36:51 overwrite stylesheets/main.css 
2014-02-10 10:43:25 overwrite stylesheets/main.css 
2014-02-10 10:43:28 overwrite stylesheets/main.css 
2014-02-10 10:43:37 overwrite stylesheets/main.css 
2014-02-10 10:43:40 overwrite stylesheets/main.css 
2014-02-10 10:43:50 overwrite stylesheets/main.css 
2014-02-10 10:44:21 overwrite stylesheets/main.css 
2014-02-10 10:44:25 overwrite stylesheets/main.css 
2014-02-10 10:44:41 overwrite stylesheets/main.css 
2014-02-10 10:45:19 overwrite stylesheets/main.css 
2014-02-10 10:45:33 overwrite stylesheets/main.css 
2014-02-10 10:45:36 overwrite stylesheets/main.css 
2014-02-10 10:45:48 overwrite stylesheets/main.css 
2014-02-10 10:47:34 overwrite stylesheets/main.css 
2014-02-10 10:47:39 overwrite stylesheets/main.css 
2014-02-10 11:05:38 overwrite stylesheets/main.css 
2014-02-10 11:06:26 overwrite stylesheets/main.css 
2014-02-10 11:06:51 overwrite stylesheets/main.css 
2014-02-10 11:07:02 identical stylesheets/main.css 
2014-02-10 11:09:31 overwrite stylesheets/main.css 
2014-02-10 11:13:29 overwrite stylesheets/main.css 
2014-02-10 11:14:07 overwrite stylesheets/main.css 
2014-02-10 11:14:12 overwrite stylesheets/main.css 
2014-02-10 11:48:51 overwrite stylesheets/main.css 
2014-02-10 11:53:01 overwrite stylesheets/main.css 
2014-02-10 12:00:52 overwrite stylesheets/main.css 
2014-02-10 12:02:10 overwrite stylesheets/main.css 
2014-02-10 13:54:29 overwrite stylesheets/main.css 
2014-02-10 13:55:04 overwrite stylesheets/main.css 
2014-02-10 13:55:18 overwrite stylesheets/main.css 
2014-02-10 14:18:55 overwrite stylesheets/main.css 
2014-02-10 14:25:15 overwrite stylesheets/main.css 
2014-02-10 14:40:01 overwrite stylesheets/main.css 
2014-02-10 14:40:11 overwrite stylesheets/main.css 
2014-02-10 14:40:16 overwrite stylesheets/main.css 
2014-02-10 14:42:32 overwrite stylesheets/main.css 
2014-02-10 15:39:29     error sass/main.scss (Line 61 of sass/_forms.scss: Invalid CSS after "  }": expected selector or at-rule, was "}")
2014-02-10 15:39:29 overwrite stylesheets/main.css 
2014-02-10 15:40:13     error sass/main.scss (Line 62 of sass/_forms.scss: Invalid CSS after "}": expected selector or at-rule, was "}")
2014-02-10 15:40:13 overwrite stylesheets/main.css 
2014-02-10 15:41:32     error sass/main.scss (Line 13 of sass/_forms.scss: Invalid CSS after "...nput[type=email": expected "]", was ", input[type=ph...")
2014-02-10 15:41:32 overwrite stylesheets/main.css 
2014-02-10 16:17:29     error sass/main.scss (Line 62 of sass/_forms.scss: Invalid CSS after "}": expected selector or at-rule, was "}")
2014-02-10 16:17:29 overwrite stylesheets/main.css 
2014-02-10 16:17:40 overwrite stylesheets/main.css 
2014-02-10 16:21:44 identical stylesheets/main.css 
2014-02-10 16:27:14 overwrite stylesheets/main.css 
2014-02-10 16:35:30 overwrite stylesheets/main.css 
2014-02-10 16:38:12 overwrite stylesheets/main.css 
2014-02-10 16:38:34 overwrite stylesheets/main.css 
2014-02-10 16:40:56 overwrite stylesheets/main.css 
2014-02-10 16:42:40 overwrite stylesheets/main.css 
2014-02-10 16:42:47 overwrite stylesheets/main.css 
2014-02-10 16:42:53 overwrite stylesheets/main.css 
2014-02-10 16:42:58 overwrite stylesheets/main.css 
2014-02-10 16:47:20 overwrite stylesheets/main.css 
2014-02-10 16:47:33 identical stylesheets/main.css 
2014-02-10 16:47:41 overwrite stylesheets/main.css 
2014-02-10 16:49:16 overwrite stylesheets/main.css 
2014-02-10 16:51:56 identical stylesheets/main.css 
2014-02-10 16:52:00 identical stylesheets/main.css 
2014-02-10 16:52:23 identical stylesheets/main.css 
2014-02-10 16:52:46 overwrite stylesheets/main.css 
2014-02-10 16:52:54 overwrite stylesheets/main.css 
2014-02-10 16:53:02 overwrite stylesheets/main.css 
2014-02-10 16:56:16 overwrite stylesheets/main.css 
2014-02-10 16:56:59 overwrite stylesheets/main.css 
2014-02-10 16:57:28 overwrite stylesheets/main.css 
2014-02-10 16:58:48 overwrite stylesheets/main.css 
2014-02-10 16:59:33 overwrite stylesheets/main.css 
2014-02-10 17:00:55 overwrite stylesheets/main.css 
2014-02-10 17:01:21     error sass/main.scss (Line 36 of sass/_forms.scss: Invalid CSS after "      c": expected "{", was "}")
2014-02-10 17:01:21 overwrite stylesheets/main.css 
2014-02-10 17:01:28 overwrite stylesheets/main.css 
2014-02-10 17:04:08 identical stylesheets/main.css 
2014-02-10 17:04:52 overwrite stylesheets/main.css 
2014-02-10 17:05:30 overwrite stylesheets/main.css 
2014-02-10 17:06:28 identical stylesheets/main.css 
2014-02-10 17:06:42 identical stylesheets/main.css 
2014-02-17 09:52:29 overwrite stylesheets/main.css 
2014-02-17 09:53:04 overwrite stylesheets/main.css 
2014-02-17 09:53:38 overwrite stylesheets/main.css 
2014-02-17 10:52:05 overwrite stylesheets/main.css 
2014-02-17 13:32:02 overwrite stylesheets/main.css 
2014-02-17 13:32:49 overwrite stylesheets/main.css 
2014-02-17 13:33:04 overwrite stylesheets/main.css 
2014-02-17 13:33:12 overwrite stylesheets/main.css 
2014-02-17 13:49:28 overwrite stylesheets/main.css 
2014-02-17 13:49:40 overwrite stylesheets/main.css 
2014-02-17 13:50:03 overwrite stylesheets/main.css 
2014-02-17 13:50:16 overwrite stylesheets/main.css 
2014-02-17 13:50:28 identical stylesheets/main.css 
2014-02-17 13:50:39 overwrite stylesheets/main.css 
2014-02-17 13:50:42 identical stylesheets/main.css 
2014-02-17 13:51:05 overwrite stylesheets/main.css 
2014-02-17 13:51:12 overwrite stylesheets/main.css 
2014-02-17 13:51:38 overwrite stylesheets/main.css 
2014-02-17 13:51:41 overwrite stylesheets/main.css 
2014-02-17 13:52:24 overwrite stylesheets/main.css 
2014-02-17 13:52:55 overwrite stylesheets/main.css 
2014-02-17 13:53:37 overwrite stylesheets/main.css 
2014-02-17 13:53:45 overwrite stylesheets/main.css 
2014-02-17 13:56:31 overwrite stylesheets/main.css 
2014-02-17 13:56:59     error sass/main.scss (Line 87 of sass/_payment.scss: Invalid CSS after "    text-align": expected ";", was ":right;")
2014-02-17 13:57:00 overwrite stylesheets/main.css 
2014-02-17 13:57:05 overwrite stylesheets/main.css 
2014-02-17 13:57:43 overwrite stylesheets/main.css 
2014-02-17 14:01:31 overwrite stylesheets/main.css 
2014-02-17 14:01:35 overwrite stylesheets/main.css 
2014-02-17 14:01:45 overwrite stylesheets/main.css 
2014-02-17 14:01:53 overwrite stylesheets/main.css 
2014-02-17 14:02:00 overwrite stylesheets/main.css 
2014-02-17 14:03:09 overwrite stylesheets/main.css 
2014-02-17 14:03:18 overwrite stylesheets/main.css 
2014-02-17 14:03:34 overwrite stylesheets/main.css 
2014-02-17 14:03:43 overwrite stylesheets/main.css 
2014-02-17 14:03:45 overwrite stylesheets/main.css 
2014-02-17 14:03:53 overwrite stylesheets/main.css 
2014-02-17 14:04:01 overwrite stylesheets/main.css 
2014-02-17 14:04:08 overwrite stylesheets/main.css 
2014-02-17 14:04:12 overwrite stylesheets/main.css 
2014-02-17 14:08:36 overwrite stylesheets/main.css 
2014-02-17 14:10:36 overwrite stylesheets/main.css 
2014-02-17 14:10:57 overwrite stylesheets/main.css 
2014-02-17 14:12:25 overwrite stylesheets/main.css 
2014-02-17 14:12:37 overwrite stylesheets/main.css 
2014-02-17 14:12:52 overwrite stylesheets/main.css 
2014-02-17 14:13:20 overwrite stylesheets/main.css 
2014-02-17 14:13:29 overwrite stylesheets/main.css 
2014-02-17 14:13:38 overwrite stylesheets/main.css 
2014-02-17 14:14:04 overwrite stylesheets/main.css 
2014-02-17 14:18:30 overwrite stylesheets/main.css 
2014-02-17 14:21:33 overwrite stylesheets/main.css 
2014-02-17 14:21:46 overwrite stylesheets/main.css 
2014-02-17 14:21:49 overwrite stylesheets/main.css 
2014-02-17 14:22:38 overwrite stylesheets/main.css 
2014-02-17 14:22:46 overwrite stylesheets/main.css 
2014-02-17 14:23:23 overwrite stylesheets/main.css 
2014-02-17 14:25:56 overwrite stylesheets/main.css 
2014-02-17 14:26:36     error sass/main.scss (Line 39 of sass/_payment.scss: Undefined variable: "$grey".)
2014-02-17 14:26:36 overwrite stylesheets/main.css 
2014-02-17 14:26:51 overwrite stylesheets/main.css 
2014-02-17 14:27:46 overwrite stylesheets/main.css 
2014-02-17 14:28:50 overwrite stylesheets/main.css 
2014-02-17 14:37:32 overwrite stylesheets/main.css 
2014-02-17 14:37:36 overwrite stylesheets/main.css 
2014-02-17 14:38:01 overwrite stylesheets/main.css 
2014-02-17 14:38:04 identical stylesheets/main.css 
2014-02-17 14:38:11 overwrite stylesheets/main.css 
2014-02-17 14:38:35 overwrite stylesheets/main.css 
2014-02-17 14:38:41 overwrite stylesheets/main.css 
2014-02-17 14:38:59 overwrite stylesheets/main.css 
2014-02-17 14:39:04 overwrite stylesheets/main.css 
2014-02-17 14:51:09 overwrite stylesheets/main.css 
2014-02-17 14:52:50 overwrite stylesheets/main.css 
2014-02-17 14:53:21 overwrite stylesheets/main.css 
2014-02-17 14:53:37 overwrite stylesheets/main.css 
2014-02-17 14:54:42     error sass/main.scss (Line 22 of sass/_payment.scss: Undefined variable: "$muli".)
2014-02-17 14:54:42 overwrite stylesheets/main.css 
2014-02-17 14:54:49     error sass/main.scss (Line 22 of sass/_payment.scss: Undefined variable: "$oswald".)
2014-02-17 14:54:49 overwrite stylesheets/main.css 
2014-02-17 14:56:37     error sass/main.scss (Line 19: Invalid CSS after "@import "other";/": expected identifier, was ",.")
2014-02-17 14:56:37 overwrite stylesheets/main.css 
2014-02-17 14:59:14     error sass/main.scss (Line 22 of sass/_payment.scss: Undefined variable: "$oswald".)
2014-02-17 14:59:14 overwrite stylesheets/main.css 
2014-02-17 14:59:33 overwrite stylesheets/main.css 
2014-02-17 15:04:16 identical stylesheets/main.css 
2014-02-17 15:06:54 overwrite stylesheets/main.css 
2014-02-17 15:08:25 overwrite stylesheets/main.css 
2014-02-17 15:09:39 overwrite stylesheets/main.css 
2014-02-17 15:10:04 overwrite stylesheets/main.css 
2014-02-17 15:11:30 overwrite stylesheets/main.css 
2014-02-17 15:12:54 overwrite stylesheets/main.css 
2014-02-17 15:15:08 overwrite stylesheets/main.css 
2014-02-17 15:15:29 overwrite stylesheets/main.css 
2014-02-17 15:28:24 overwrite stylesheets/main.css 
2014-02-17 15:42:21 overwrite stylesheets/main.css 
2014-02-17 15:42:57 overwrite stylesheets/main.css 
2014-02-17 15:43:09 overwrite stylesheets/main.css 
2014-02-17 15:43:49 overwrite stylesheets/main.css 
2014-02-17 15:44:03 identical stylesheets/main.css 
2014-02-17 15:48:03 overwrite stylesheets/main.css 
2014-02-17 15:48:24 overwrite stylesheets/main.css 
2014-02-17 15:48:45 identical stylesheets/main.css 
2014-02-17 15:49:18 overwrite stylesheets/main.css 
2014-02-17 15:50:09     error sass/main.scss (Line 24 of sass/_login.scss: Invalid CSS after "  @include ": expected identifier, was ".box-border;")
2014-02-17 15:50:09 overwrite stylesheets/main.css 
2014-02-17 15:50:19 overwrite stylesheets/main.css 
2014-02-17 15:50:21 overwrite stylesheets/main.css 
2014-02-17 15:50:56 overwrite stylesheets/main.css 
2014-02-17 15:51:17 overwrite stylesheets/main.css 
2014-02-17 15:51:33 overwrite stylesheets/main.css 
2014-02-17 15:52:00 overwrite stylesheets/main.css 
2014-02-17 15:52:09 overwrite stylesheets/main.css 
2014-02-17 15:52:14 overwrite stylesheets/main.css 
2014-02-17 15:52:21 overwrite stylesheets/main.css 
2014-02-17 15:52:27 overwrite stylesheets/main.css 
2014-02-17 15:52:34 overwrite stylesheets/main.css 
2014-02-17 15:53:05 overwrite stylesheets/main.css 
2014-02-17 15:53:16 overwrite stylesheets/main.css 
2014-02-17 15:53:22 overwrite stylesheets/main.css 
2014-02-17 15:53:33 overwrite stylesheets/main.css 
2014-02-17 15:53:41     error sass/main.scss (Line 30 of sass/_login.scss: Invalid CSS after "... $padding; auto": expected "{", was ";")
2014-02-17 15:53:41 overwrite stylesheets/main.css 
2014-02-17 15:53:42 overwrite stylesheets/main.css 
2014-02-17 15:53:56 overwrite stylesheets/main.css 
2014-02-17 15:54:03 identical stylesheets/main.css 
2014-02-17 15:55:38 overwrite stylesheets/main.css 
2014-02-17 15:55:47 overwrite stylesheets/main.css 
2014-02-17 15:56:09 overwrite stylesheets/main.css 
2014-02-17 15:56:18 overwrite stylesheets/main.css 
2014-02-17 15:56:26 overwrite stylesheets/main.css 
2014-02-17 15:56:36 overwrite stylesheets/main.css 
2014-02-17 15:56:46 overwrite stylesheets/main.css 
2014-02-17 15:57:55 overwrite stylesheets/main.css 
2014-02-17 15:58:11 overwrite stylesheets/main.css 
2014-02-17 15:58:15 overwrite stylesheets/main.css 
2014-02-17 15:58:29 overwrite stylesheets/main.css 
2014-02-17 15:58:58 overwrite stylesheets/main.css 
2014-02-17 15:59:21     error sass/main.scss (Line 27 of sass/_login.scss: Invalid CSS after "...white;fotn-size": expected "{", was "?:1em;}")
2014-02-17 15:59:21 overwrite stylesheets/main.css 
2014-02-17 15:59:25 overwrite stylesheets/main.css 
2014-02-17 15:59:31 overwrite stylesheets/main.css 
2014-02-17 15:59:45 overwrite stylesheets/main.css 
2014-02-17 15:59:52 overwrite stylesheets/main.css 
2014-02-17 16:00:05 overwrite stylesheets/main.css 
2014-02-17 16:00:39 overwrite stylesheets/main.css 
2014-02-17 16:00:49 overwrite stylesheets/main.css 
2014-02-17 16:01:35 overwrite stylesheets/main.css 
2014-02-17 16:01:53 overwrite stylesheets/main.css 
2014-02-17 16:02:23 overwrite stylesheets/main.css 
2014-02-17 16:02:41 overwrite stylesheets/main.css 
2014-02-17 16:02:57 overwrite stylesheets/main.css 
2014-02-17 16:03:33 overwrite stylesheets/main.css 
2014-02-17 16:03:45 overwrite stylesheets/main.css 
2014-02-17 16:04:14 overwrite stylesheets/main.css 
2014-02-17 16:04:28 overwrite stylesheets/main.css 
2014-02-17 16:04:42 overwrite stylesheets/main.css 
2014-02-17 16:10:00 overwrite stylesheets/main.css 
2014-02-17 16:24:23 overwrite stylesheets/main.css 
2014-02-17 16:26:15 overwrite stylesheets/main.css 
2014-02-17 16:43:45 overwrite stylesheets/main.css 
2014-02-17 16:50:07 overwrite stylesheets/main.css 
2014-02-17 16:51:14 overwrite stylesheets/main.css 
2014-02-17 17:00:37 overwrite stylesheets/main.css 
2014-02-17 17:00:41 overwrite stylesheets/main.css 
2014-02-17 17:01:05 overwrite stylesheets/main.css 
2014-02-17 17:04:16 overwrite stylesheets/main.css 
2014-02-17 17:05:19 overwrite stylesheets/main.css 
2014-02-17 17:07:41 overwrite stylesheets/main.css 
2014-02-17 17:09:13 overwrite stylesheets/main.css 
2014-02-17 17:09:25 identical stylesheets/main.css 
2014-02-17 17:15:47     error sass/main.scss (Line 69 of sass/_payment.scss: Invalid CSS after "    width:50%": expected ";", was ":")
2014-02-17 17:15:47 overwrite stylesheets/main.css 
2014-02-17 17:15:48     error sass/main.scss (Line 68 of sass/_payment.scss: Invalid CSS after "      width: 50%": expected ";", was ":}")
2014-02-17 17:15:48 overwrite stylesheets/main.css 
2014-02-17 17:16:16 overwrite stylesheets/main.css 
2014-02-17 17:16:19 overwrite stylesheets/main.css 
2014-02-17 17:16:38 overwrite stylesheets/main.css 
2014-02-17 17:18:10 overwrite stylesheets/main.css 
2014-02-17 17:18:38 overwrite stylesheets/main.css 
2014-02-17 17:21:01 overwrite stylesheets/main.css 
2014-02-17 17:22:27 identical stylesheets/main.css 
2014-02-17 17:24:12 overwrite stylesheets/main.css 
2014-02-18 09:16:29 overwrite stylesheets/main.css 
2014-02-18 09:16:49 overwrite stylesheets/main.css 
2014-02-18 09:17:01 overwrite stylesheets/main.css 
2014-02-18 09:17:15 overwrite stylesheets/main.css 
2014-02-18 09:17:33 overwrite stylesheets/main.css 
2014-02-18 09:18:18 overwrite stylesheets/main.css 
2014-02-18 09:18:29 identical stylesheets/main.css 
2014-02-18 09:18:41 overwrite stylesheets/main.css 
2014-02-18 09:19:03 overwrite stylesheets/main.css 
2014-02-18 10:21:32 overwrite stylesheets/main.css 
2014-02-18 10:24:42 overwrite stylesheets/main.css 
2014-02-18 10:25:39 overwrite stylesheets/main.css 
2014-02-18 10:25:47 overwrite stylesheets/main.css 
2014-02-18 10:25:54 overwrite stylesheets/main.css 
2014-02-18 10:26:00 overwrite stylesheets/main.css 
2014-02-18 10:26:09 overwrite stylesheets/main.css 
2014-02-18 10:28:46 overwrite stylesheets/main.css 
2014-02-18 10:29:40 overwrite stylesheets/main.css 
2014-02-18 10:29:47 overwrite stylesheets/main.css 
2014-02-18 10:30:01     error sass/main.scss (Line 38 of sass/_links.scss: Invalid CSS after "  float: none ": expected ";", was "!imprortant;")
2014-02-18 10:30:01 overwrite stylesheets/main.css 
2014-02-18 10:30:06 overwrite stylesheets/main.css 
2014-02-18 10:30:11 overwrite stylesheets/main.css 
2014-02-18 10:30:53 overwrite stylesheets/main.css 
2014-02-18 10:31:06 overwrite stylesheets/main.css 
2014-02-18 10:31:39 overwrite stylesheets/main.css 
2014-02-18 10:31:47 overwrite stylesheets/main.css 
2014-02-18 10:33:54 overwrite stylesheets/main.css 
2014-02-18 10:34:19 overwrite stylesheets/main.css 
2014-02-18 10:38:14 overwrite stylesheets/main.css 
2014-02-18 10:38:20 overwrite stylesheets/main.css 
2014-02-18 10:38:41 overwrite stylesheets/main.css 
2014-02-18 10:40:35 overwrite stylesheets/main.css 
2014-02-18 10:41:15 overwrite stylesheets/main.css 
2014-02-18 10:41:26 overwrite stylesheets/main.css 
2014-02-18 10:45:15 overwrite stylesheets/main.css 
2014-02-18 10:45:29 overwrite stylesheets/main.css 
2014-02-18 10:45:47 overwrite stylesheets/main.css 
2014-02-18 10:46:00 overwrite stylesheets/main.css 
2014-02-18 10:46:06 overwrite stylesheets/main.css 
2014-02-18 10:46:26 overwrite stylesheets/main.css 
2014-02-18 10:46:48 overwrite stylesheets/main.css 
2014-02-18 10:47:07 overwrite stylesheets/main.css 
2014-02-18 10:47:15 overwrite stylesheets/main.css 
2014-02-18 10:47:24 overwrite stylesheets/main.css 
2014-02-18 10:48:32 overwrite stylesheets/main.css 
2014-02-18 10:48:41 overwrite stylesheets/main.css 
2014-02-18 11:03:08 overwrite stylesheets/main.css 
2014-02-18 11:03:17 overwrite stylesheets/main.css 
2014-02-18 11:03:48 overwrite stylesheets/main.css 
2014-02-18 11:04:31     error sass/main.scss (Line 201 of sass/_product.scss: Undefined variable: "$white".)
2014-02-18 11:04:31 overwrite stylesheets/main.css 
2014-02-18 11:04:36     error sass/main.scss (Line 201 of sass/_product.scss: Undefined variable: "$white-text".)
2014-02-18 11:04:36 overwrite stylesheets/main.css 
2014-02-18 11:04:51 overwrite stylesheets/main.css 
2014-02-18 11:05:08 overwrite stylesheets/main.css 
2014-02-18 11:05:15 overwrite stylesheets/main.css 
2014-02-18 11:07:25 overwrite stylesheets/main.css 
2014-02-18 11:09:17 overwrite stylesheets/main.css 
2014-02-18 11:09:58 overwrite stylesheets/main.css 
2014-02-18 11:10:02 overwrite stylesheets/main.css 
2014-02-18 11:10:57 overwrite stylesheets/main.css 
2014-02-18 11:11:05 overwrite stylesheets/main.css 
2014-02-18 11:15:51 overwrite stylesheets/main.css 
2014-02-18 11:16:09 overwrite stylesheets/main.css 
2014-02-18 11:16:25 overwrite stylesheets/main.css 
2014-02-18 11:16:44 overwrite stylesheets/main.css 
2014-02-18 11:18:22 overwrite stylesheets/main.css 
2014-02-18 11:18:32 overwrite stylesheets/main.css 
2014-02-18 11:18:45 overwrite stylesheets/main.css 
2014-02-18 11:19:19 overwrite stylesheets/main.css 
2014-02-18 11:21:50 overwrite stylesheets/main.css 
2014-02-18 11:22:04 overwrite stylesheets/main.css 
2014-02-18 11:22:12 overwrite stylesheets/main.css 
2014-02-18 11:22:24 overwrite stylesheets/main.css 
2014-02-18 11:22:42 overwrite stylesheets/main.css 
2014-02-18 11:22:49 overwrite stylesheets/main.css 
2014-02-18 11:22:56 overwrite stylesheets/main.css 
2014-02-18 11:23:03 overwrite stylesheets/main.css 
2014-02-18 11:23:07 overwrite stylesheets/main.css 
2014-02-18 11:23:15 overwrite stylesheets/main.css 
2014-02-18 11:23:23 overwrite stylesheets/main.css 
2014-02-18 11:23:34 overwrite stylesheets/main.css 
2014-02-18 11:23:51 overwrite stylesheets/main.css 
2014-02-18 11:24:01 overwrite stylesheets/main.css 
2014-02-18 11:25:19 identical stylesheets/main.css 
2014-02-18 11:26:29 identical stylesheets/main.css 
2014-02-18 11:27:22 overwrite stylesheets/main.css 
2014-02-18 11:27:30 overwrite stylesheets/main.css 
2014-02-18 11:27:44 overwrite stylesheets/main.css 
2014-02-18 11:29:09 overwrite stylesheets/main.css 
2014-02-18 11:29:43 overwrite stylesheets/main.css 
2014-02-18 11:31:59 overwrite stylesheets/main.css 
2014-02-18 11:33:45 overwrite stylesheets/main.css 
2014-02-18 11:34:00 overwrite stylesheets/main.css 
2014-02-18 11:34:10 overwrite stylesheets/main.css 
2014-02-18 11:34:20 overwrite stylesheets/main.css 
2014-02-18 11:34:23 overwrite stylesheets/main.css 
2014-02-18 11:34:33 overwrite stylesheets/main.css 
2014-02-18 11:34:47     error sass/main.scss (Line 909 of sass/_jquery-ui.scss: Undefined variable: "$ofont-muli".)
2014-02-18 11:34:47 overwrite stylesheets/main.css 
2014-02-18 11:34:50 overwrite stylesheets/main.css 
2014-02-18 11:36:10 overwrite stylesheets/main.css 
2014-02-18 11:36:26 overwrite stylesheets/main.css 
2014-02-18 11:37:26 overwrite stylesheets/main.css 
2014-02-18 11:38:11 overwrite stylesheets/main.css 
2014-02-18 11:38:27 overwrite stylesheets/main.css 
2014-02-18 11:40:01 overwrite stylesheets/main.css 
2014-02-18 11:41:23 overwrite stylesheets/main.css 
2014-02-18 11:41:36 overwrite stylesheets/main.css 
2014-02-18 11:41:53 overwrite stylesheets/main.css 
2014-02-18 11:42:05 overwrite stylesheets/main.css 
2014-02-18 11:42:14 overwrite stylesheets/main.css 
2014-02-18 11:42:30 overwrite stylesheets/main.css 
2014-02-18 11:42:48 overwrite stylesheets/main.css 
2014-02-18 11:42:56 overwrite stylesheets/main.css 
2014-02-18 11:43:05 overwrite stylesheets/main.css 
2014-02-18 11:43:11 overwrite stylesheets/main.css 
2014-02-18 11:44:28 overwrite stylesheets/main.css 
2014-02-18 11:44:37 overwrite stylesheets/main.css 
2014-02-18 11:45:09 overwrite stylesheets/main.css 
2014-02-18 11:45:26 overwrite stylesheets/main.css 
2014-02-18 11:45:48 overwrite stylesheets/main.css 
2014-02-18 11:46:12 overwrite stylesheets/main.css 
2014-02-18 11:46:24 overwrite stylesheets/main.css 
2014-02-18 11:47:11 overwrite stylesheets/main.css 
2014-02-18 11:47:33 identical stylesheets/main.css 
2014-02-18 11:48:15 overwrite stylesheets/main.css 
2014-02-18 11:48:29 identical stylesheets/main.css 
2014-02-18 11:48:39 overwrite stylesheets/main.css 
2014-02-18 11:49:10 overwrite stylesheets/main.css 
2014-02-18 11:49:16 overwrite stylesheets/main.css 
2014-02-18 11:49:25 overwrite stylesheets/main.css 
2014-02-18 11:52:49 overwrite stylesheets/main.css 
2014-02-18 13:06:18 overwrite stylesheets/main.css 
2014-02-18 13:11:25 overwrite stylesheets/main.css 
2014-02-18 13:11:31 overwrite stylesheets/main.css 
2014-02-18 13:11:43 overwrite stylesheets/main.css 
2014-02-18 13:13:11 overwrite stylesheets/main.css 
2014-02-18 13:22:04 overwrite stylesheets/main.css 
2014-02-18 13:23:11 identical stylesheets/main.css 
2014-02-18 13:25:03 overwrite stylesheets/main.css 
2014-02-18 13:25:07 overwrite stylesheets/main.css 
2014-02-18 13:25:20 overwrite stylesheets/main.css 
2014-02-18 13:26:01 overwrite stylesheets/main.css 
2014-02-18 13:26:53 overwrite stylesheets/main.css 
2014-02-18 13:27:20 overwrite stylesheets/main.css 
2014-02-18 13:32:07 overwrite stylesheets/main.css 
2014-02-18 13:32:53 overwrite stylesheets/main.css 
2014-02-18 13:33:55 overwrite stylesheets/main.css 
2014-02-18 13:33:58 overwrite stylesheets/main.css 
2014-02-18 13:34:42 overwrite stylesheets/main.css 
2014-02-18 13:35:14 overwrite stylesheets/main.css 
2014-02-18 13:38:35 overwrite stylesheets/main.css 
2014-02-18 13:38:54 overwrite stylesheets/main.css 
2014-02-18 13:39:12 overwrite stylesheets/main.css 
2014-02-18 13:40:48 overwrite stylesheets/main.css 
2014-02-18 13:40:49 overwrite stylesheets/main.css 
2014-02-18 13:41:43 overwrite stylesheets/main.css 
2014-02-18 13:41:58 overwrite stylesheets/main.css 
2014-02-18 13:42:45 overwrite stylesheets/main.css 
2014-02-18 13:43:03 overwrite stylesheets/main.css 
2014-02-18 13:43:11 overwrite stylesheets/main.css 
2014-02-18 13:43:43 overwrite stylesheets/main.css 
2014-02-18 13:57:52 overwrite stylesheets/main.css 
2014-02-18 13:58:00 overwrite stylesheets/main.css 
2014-02-18 13:58:43 overwrite stylesheets/main.css 
2014-02-18 13:58:46 overwrite stylesheets/main.css 
2014-02-18 13:59:15 overwrite stylesheets/main.css 
2014-02-18 13:59:28 overwrite stylesheets/main.css 
2014-02-18 13:59:32 overwrite stylesheets/main.css 
2014-02-18 13:59:49 overwrite stylesheets/main.css 
2014-02-18 14:00:02 overwrite stylesheets/main.css 
2014-02-18 14:00:26 overwrite stylesheets/main.css 
2014-02-18 14:01:19 overwrite stylesheets/main.css 
2014-02-18 14:01:44 overwrite stylesheets/main.css 
2014-02-18 14:01:50 overwrite stylesheets/main.css 
2014-02-18 14:02:04 overwrite stylesheets/main.css 
2014-02-18 14:02:25 overwrite stylesheets/main.css 
2014-02-18 14:02:32 overwrite stylesheets/main.css 
2014-02-18 14:03:24 overwrite stylesheets/main.css 
2014-02-18 14:03:29 overwrite stylesheets/main.css 
2014-02-18 14:03:43 overwrite stylesheets/main.css 
2014-02-18 14:03:51 overwrite stylesheets/main.css 
2014-02-18 14:03:57 overwrite stylesheets/main.css 
2014-02-18 14:04:20 overwrite stylesheets/main.css 
2014-02-18 14:04:30 overwrite stylesheets/main.css 
2014-02-18 14:04:32 overwrite stylesheets/main.css 
2014-02-18 14:04:39 overwrite stylesheets/main.css 
2014-02-18 14:04:48 overwrite stylesheets/main.css 
2014-02-18 14:04:51 overwrite stylesheets/main.css 
2014-02-18 14:06:43     error sass/main.scss (Line 138 of sass/_payment.scss: Invalid CSS after "  }": expected "}", was "")
2014-02-18 14:06:43 overwrite stylesheets/main.css 
2014-02-18 14:06:59 overwrite stylesheets/main.css 
2014-02-18 14:07:03 overwrite stylesheets/main.css 
2014-02-18 14:08:02 overwrite stylesheets/main.css 
2014-02-18 14:08:16 overwrite stylesheets/main.css 
2014-02-18 14:08:21 overwrite stylesheets/main.css 
2014-02-18 14:09:41 overwrite stylesheets/main.css 
2014-02-18 14:11:52 overwrite stylesheets/main.css 
2014-02-18 14:12:56 overwrite stylesheets/main.css 
2014-02-18 14:13:09 overwrite stylesheets/main.css 
2014-02-18 14:13:20 overwrite stylesheets/main.css 
2014-02-18 14:35:42 overwrite stylesheets/main.css 
2014-02-18 14:35:44 overwrite stylesheets/main.css 
2014-02-18 14:36:24 overwrite stylesheets/main.css 
2014-02-18 14:36:42 overwrite stylesheets/main.css 
2014-02-18 14:37:36 overwrite stylesheets/main.css 
2014-02-18 14:37:52 overwrite stylesheets/main.css 
2014-02-18 14:38:05 overwrite stylesheets/main.css 
2014-02-18 14:38:56 overwrite stylesheets/main.css 
2014-02-18 14:39:13 overwrite stylesheets/main.css 
2014-02-18 14:39:18 overwrite stylesheets/main.css 
2014-02-18 14:39:45 overwrite stylesheets/main.css 
2014-02-18 14:39:50 overwrite stylesheets/main.css 
2014-02-18 14:39:56 overwrite stylesheets/main.css 
2014-02-18 14:40:04 overwrite stylesheets/main.css 
2014-02-18 14:40:07 overwrite stylesheets/main.css 
2014-02-18 14:40:18 overwrite stylesheets/main.css 
2014-02-18 14:40:23 overwrite stylesheets/main.css 
2014-02-18 14:40:28 overwrite stylesheets/main.css 
2014-02-18 14:40:35 overwrite stylesheets/main.css 
2014-02-18 14:40:54 overwrite stylesheets/main.css 
2014-02-18 14:40:58 overwrite stylesheets/main.css 
2014-02-18 14:42:24 overwrite stylesheets/main.css 
2014-02-18 14:42:47 overwrite stylesheets/main.css 
2014-02-18 14:43:03 overwrite stylesheets/main.css 
2014-02-18 14:43:15 overwrite stylesheets/main.css 
2014-02-18 14:43:29 overwrite stylesheets/main.css 
2014-02-18 14:43:31 overwrite stylesheets/main.css 
2014-02-18 14:45:17 overwrite stylesheets/main.css 
2014-02-18 14:46:05 overwrite stylesheets/main.css 
2014-02-18 14:46:17 overwrite stylesheets/main.css 
2014-02-18 14:46:19 overwrite stylesheets/main.css 
2014-02-18 14:46:39 overwrite stylesheets/main.css 
2014-02-18 14:46:41 overwrite stylesheets/main.css 
2014-02-18 14:49:42 overwrite stylesheets/main.css 
2014-02-18 14:51:14 identical stylesheets/main.css 
2014-02-18 14:51:31 overwrite stylesheets/main.css 
2014-02-18 14:52:17 overwrite stylesheets/main.css 
2014-02-18 14:53:20 overwrite stylesheets/main.css 
2014-02-18 14:53:41     error sass/main.scss (Line 18 of sass/_checkout.scss: Undefined variable: "$white".)
2014-02-18 14:53:41 overwrite stylesheets/main.css 
2014-02-18 14:53:42     error sass/main.scss (Line 18 of sass/_checkout.scss: Undefined variable: "$white".)
2014-02-18 14:53:42 identical stylesheets/main.css 
2014-02-18 14:53:57 overwrite stylesheets/main.css 
2014-02-18 14:54:08 overwrite stylesheets/main.css 
2014-02-18 14:54:18 overwrite stylesheets/main.css 
2014-02-18 14:54:44 overwrite stylesheets/main.css 
2014-02-18 14:55:00 overwrite stylesheets/main.css 
2014-02-18 14:55:46 overwrite stylesheets/main.css 
2014-02-18 14:56:04 overwrite stylesheets/main.css 
2014-02-18 14:56:24 overwrite stylesheets/main.css 
2014-02-18 14:56:38 overwrite stylesheets/main.css 
2014-02-18 14:56:42 identical stylesheets/main.css 
2014-02-18 15:02:57 overwrite stylesheets/main.css 
2014-02-18 15:03:05 identical stylesheets/main.css 
2014-02-18 15:03:59 overwrite stylesheets/main.css 
2014-02-18 15:08:20 overwrite stylesheets/main.css 
2014-02-18 15:08:23 overwrite stylesheets/main.css 
2014-02-18 15:09:40 overwrite stylesheets/main.css 
2014-02-18 15:14:20 overwrite stylesheets/main.css 
2014-02-18 15:14:43 overwrite stylesheets/main.css 
2014-02-18 15:15:33 overwrite stylesheets/main.css 
2014-02-18 15:15:52 overwrite stylesheets/main.css 
2014-02-18 15:16:00 overwrite stylesheets/main.css 
2014-02-18 15:16:06 overwrite stylesheets/main.css 
2014-02-18 15:16:14 overwrite stylesheets/main.css 
2014-02-18 15:16:29 overwrite stylesheets/main.css 
2014-02-18 15:16:45 overwrite stylesheets/main.css 
2014-02-18 15:20:51 overwrite stylesheets/main.css 
2014-02-18 15:31:07 overwrite stylesheets/main.css 
2014-02-18 15:31:21 overwrite stylesheets/main.css 
2014-02-18 15:31:34 overwrite stylesheets/main.css 
2014-02-18 15:31:36 overwrite stylesheets/main.css 
2014-02-18 15:31:45 overwrite stylesheets/main.css 
2014-02-18 15:32:02 overwrite stylesheets/main.css 
2014-02-18 15:32:51 overwrite stylesheets/main.css 
2014-02-18 15:35:36 overwrite stylesheets/main.css 
2014-02-18 15:40:13 overwrite stylesheets/main.css 
2014-02-18 15:40:56 overwrite stylesheets/main.css 
2014-02-18 15:41:19 overwrite stylesheets/main.css 
2014-02-18 15:45:24 overwrite stylesheets/main.css 
2014-02-18 15:47:53 overwrite stylesheets/main.css 
2014-02-18 15:49:01 overwrite stylesheets/main.css 
2014-02-18 15:50:13 overwrite stylesheets/main.css 
2014-02-18 15:50:23 overwrite stylesheets/main.css 
2014-02-18 15:50:29 overwrite stylesheets/main.css 
2014-02-18 15:50:37 overwrite stylesheets/main.css 
2014-02-18 15:50:39 overwrite stylesheets/main.css 
2014-02-18 15:51:59 overwrite stylesheets/main.css 
2014-02-18 15:52:03 identical stylesheets/main.css 
2014-02-18 15:55:11 overwrite stylesheets/main.css 
2014-02-18 15:55:21 overwrite stylesheets/main.css 
2014-02-18 15:56:25     error sass/main.scss (Line 61 of sass/_account.scss: Invalid CSS after "  }": expected selector or at-rule, was "}")
2014-02-18 15:56:25 overwrite stylesheets/main.css 
2014-02-18 15:56:29     error sass/main.scss (Line 61 of sass/_account.scss: Invalid CSS after "  }": expected selector or at-rule, was "}")
2014-02-18 15:56:29 identical stylesheets/main.css 
2014-02-18 15:56:40 overwrite stylesheets/main.css 
2014-02-18 15:56:45 identical stylesheets/main.css 
2014-02-18 16:01:17 overwrite stylesheets/main.css 
2014-02-18 16:01:32 overwrite stylesheets/main.css 
2014-02-18 16:01:48 overwrite stylesheets/main.css 
2014-02-18 16:02:35 overwrite stylesheets/main.css 
2014-02-18 16:02:52 overwrite stylesheets/main.css 
2014-02-18 16:03:22 overwrite stylesheets/main.css 
2014-02-18 16:03:52 overwrite stylesheets/main.css 
2014-02-18 16:04:09 overwrite stylesheets/main.css 
2014-02-18 16:04:12 overwrite stylesheets/main.css 
2014-02-18 16:04:21 overwrite stylesheets/main.css 
2014-02-18 16:13:06 overwrite stylesheets/main.css 
2014-02-18 16:13:36 overwrite stylesheets/main.css 
2014-02-18 16:13:57 overwrite stylesheets/main.css 
2014-02-18 16:17:17 overwrite stylesheets/main.css 
2014-02-18 16:17:31 overwrite stylesheets/main.css 
2014-02-18 16:25:57 identical stylesheets/main.css 
2014-02-18 16:26:02 overwrite stylesheets/main.css 
2014-02-19 09:55:57 overwrite stylesheets/main.css 
2014-02-19 09:56:08 overwrite stylesheets/main.css 
2014-02-19 09:56:28 overwrite stylesheets/main.css 
2014-02-19 09:56:47 overwrite stylesheets/main.css 
2014-02-19 09:57:31 overwrite stylesheets/main.css 
2014-02-19 09:57:37 overwrite stylesheets/main.css 
2014-02-19 09:57:49 overwrite stylesheets/main.css 
2014-02-19 09:58:11 overwrite stylesheets/main.css 
2014-02-19 10:01:11 overwrite stylesheets/main.css 
2014-02-19 10:02:50 overwrite stylesheets/main.css 
2014-02-19 10:07:20 overwrite stylesheets/main.css 
2014-02-19 10:08:46 overwrite stylesheets/main.css 
2014-02-19 10:09:02 overwrite stylesheets/main.css 
2014-02-19 10:09:45 overwrite stylesheets/main.css 
2014-02-19 10:09:57 overwrite stylesheets/main.css 
2014-02-19 10:10:55 overwrite stylesheets/main.css 
2014-02-19 10:11:07 overwrite stylesheets/main.css 
2014-02-19 10:12:51 overwrite stylesheets/main.css 
2014-02-19 10:13:19 overwrite stylesheets/main.css 
2014-02-19 10:13:22 overwrite stylesheets/main.css 
2014-02-19 10:13:24 identical stylesheets/main.css 
2014-02-19 10:13:32 overwrite stylesheets/main.css 
2014-02-19 10:13:41 overwrite stylesheets/main.css 
2014-02-19 10:14:10 overwrite stylesheets/main.css 
2014-02-19 10:14:19 overwrite stylesheets/main.css 
2014-02-19 10:14:27 overwrite stylesheets/main.css 
2014-02-19 10:15:44 overwrite stylesheets/main.css 
2014-02-19 10:17:33 overwrite stylesheets/main.css 
2014-02-19 10:17:47 overwrite stylesheets/main.css 
2014-02-19 10:18:03 overwrite stylesheets/main.css 
2014-02-19 10:18:15 overwrite stylesheets/main.css 
2014-02-19 10:18:22 overwrite stylesheets/main.css 
2014-02-19 10:19:44 overwrite stylesheets/main.css 
2014-02-19 10:20:08 overwrite stylesheets/main.css 
2014-02-19 10:20:17 overwrite stylesheets/main.css 
2014-02-19 10:20:23 overwrite stylesheets/main.css 
2014-02-19 10:20:36 overwrite stylesheets/main.css 
2014-02-19 10:20:47 overwrite stylesheets/main.css 
2014-02-19 10:20:52 overwrite stylesheets/main.css 
2014-02-19 10:21:01 overwrite stylesheets/main.css 
2014-02-19 10:21:38 overwrite stylesheets/main.css 
2014-02-19 10:21:53 overwrite stylesheets/main.css 
2014-02-19 10:22:18 overwrite stylesheets/main.css 
2014-02-19 10:23:28 overwrite stylesheets/main.css 
2014-02-19 14:02:06 overwrite stylesheets/main.css 
2014-02-19 14:02:21 overwrite stylesheets/main.css 
2014-02-19 14:02:40 overwrite stylesheets/main.css 
2014-02-19 14:02:51 overwrite stylesheets/main.css 
2014-02-19 14:02:57 overwrite stylesheets/main.css 
2014-02-19 14:03:36 overwrite stylesheets/main.css 
2014-02-19 14:14:44 overwrite stylesheets/main.css 
2014-02-19 14:15:32 overwrite stylesheets/main.css 
2014-02-19 14:24:50 overwrite stylesheets/main.css 
2014-02-19 14:25:13 overwrite stylesheets/main.css 
2014-02-19 14:25:36 overwrite stylesheets/main.css 
2014-02-19 14:25:58     error sass/main.scss (Line 117 of sass/_product.scss: $color: "grey" is not a color for `lighten')
2014-02-19 14:25:58 overwrite stylesheets/main.css 
2014-02-19 14:26:23     error sass/main.scss (Line 117 of sass/_product.scss: Undefined variable: "$grey".)
2014-02-19 14:26:23 overwrite stylesheets/main.css 
2014-02-19 14:26:38 overwrite stylesheets/main.css 
2014-02-19 14:26:52 overwrite stylesheets/main.css 
2014-02-19 14:27:33 overwrite stylesheets/main.css 
2014-02-19 14:30:08 overwrite stylesheets/main.css 
2014-02-19 14:30:46 overwrite stylesheets/main.css 
2014-02-19 14:31:13 overwrite stylesheets/main.css 
2014-02-19 14:31:18 overwrite stylesheets/main.css 
2014-02-19 14:31:32 overwrite stylesheets/main.css 
2014-02-19 14:31:35 overwrite stylesheets/main.css 
2014-02-19 14:32:10 overwrite stylesheets/main.css 
2014-02-19 14:32:19 overwrite stylesheets/main.css 
2014-02-19 14:32:26 overwrite stylesheets/main.css 
2014-02-19 14:32:57 overwrite stylesheets/main.css 
2014-02-19 14:33:09 overwrite stylesheets/main.css 
2014-02-19 14:33:26 overwrite stylesheets/main.css 
2014-02-19 14:33:36 identical stylesheets/main.css 
2014-02-19 14:35:23 overwrite stylesheets/main.css 
2014-02-19 14:38:30 overwrite stylesheets/main.css 
2014-02-19 14:38:54 overwrite stylesheets/main.css 
2014-02-19 14:39:02 overwrite stylesheets/main.css 
2014-02-19 14:43:41 overwrite stylesheets/main.css 
2014-02-19 14:45:20 overwrite stylesheets/main.css 
2014-02-19 14:45:27 overwrite stylesheets/main.css 
2014-02-19 14:45:31 overwrite stylesheets/main.css 
2014-02-19 14:45:37 overwrite stylesheets/main.css 
2014-02-19 14:45:48 overwrite stylesheets/main.css 
2014-02-19 14:45:58 overwrite stylesheets/main.css 
2014-02-19 14:46:09 overwrite stylesheets/main.css 
2014-02-19 14:46:30 overwrite stylesheets/main.css 
2014-02-19 14:46:46 overwrite stylesheets/main.css 
2014-02-19 14:46:56 overwrite stylesheets/main.css 
2014-02-19 14:47:03 overwrite stylesheets/main.css 
2014-02-19 14:47:16 overwrite stylesheets/main.css 
2014-02-19 14:47:24 overwrite stylesheets/main.css 
2014-02-19 14:47:33 overwrite stylesheets/main.css 
2014-02-19 14:47:40 overwrite stylesheets/main.css 
2014-02-19 14:48:16 overwrite stylesheets/main.css 
2014-02-19 14:48:37 overwrite stylesheets/main.css 
2014-02-19 14:49:02 overwrite stylesheets/main.css 
2014-02-19 14:49:11 overwrite stylesheets/main.css 
2014-02-19 14:49:22 overwrite stylesheets/main.css 
2014-02-19 14:49:29 overwrite stylesheets/main.css 
2014-02-19 14:49:44 overwrite stylesheets/main.css 
2014-02-19 14:49:53 overwrite stylesheets/main.css 
2014-02-19 14:50:02 overwrite stylesheets/main.css 
2014-02-19 14:50:26 overwrite stylesheets/main.css 
2014-02-19 14:50:48 overwrite stylesheets/main.css 
2014-02-19 14:51:07 overwrite stylesheets/main.css 
2014-02-19 14:51:25 overwrite stylesheets/main.css 
2014-02-19 14:51:58 overwrite stylesheets/main.css 
2014-02-19 14:52:15 overwrite stylesheets/main.css 
2014-02-19 14:52:25 overwrite stylesheets/main.css 
2014-02-19 14:52:43 overwrite stylesheets/main.css 
2014-02-19 14:53:10 overwrite stylesheets/main.css 
2014-02-19 14:53:17 identical stylesheets/main.css 
2014-02-19 14:53:29 overwrite stylesheets/main.css 
2014-02-19 14:53:53 overwrite stylesheets/main.css 
2014-02-19 14:59:02 overwrite stylesheets/main.css 
2014-02-19 15:00:35 overwrite stylesheets/main.css 
2014-02-19 15:01:04 identical stylesheets/main.css 
2014-02-19 15:02:03 overwrite stylesheets/main.css 
2014-02-19 15:02:25 overwrite stylesheets/main.css 
2014-02-19 15:02:53 overwrite stylesheets/main.css 
2014-02-19 15:03:43 overwrite stylesheets/main.css 
2014-02-19 15:03:48 overwrite stylesheets/main.css 
2014-02-19 15:04:26 overwrite stylesheets/main.css 
2014-02-19 15:04:38 overwrite stylesheets/main.css 
2014-02-19 17:05:40 overwrite stylesheets/main.css 
2014-02-19 17:05:57 overwrite stylesheets/main.css 
2014-02-19 17:06:31 overwrite stylesheets/main.css 
2014-02-19 17:07:02 overwrite stylesheets/main.css 
2014-02-19 17:07:09 overwrite stylesheets/main.css 
2014-02-19 17:07:19 overwrite stylesheets/main.css 
2014-02-19 17:07:32 overwrite stylesheets/main.css 
2014-02-19 17:14:14 overwrite stylesheets/main.css 
2014-02-20 10:05:49 overwrite stylesheets/main.css 
2014-02-20 16:48:10 overwrite stylesheets/main.css 
2014-02-20 16:48:16 overwrite stylesheets/main.css 
2014-02-20 16:48:26 overwrite stylesheets/main.css 
2014-02-20 16:49:12 overwrite stylesheets/main.css 
2014-02-20 16:49:59 overwrite stylesheets/main.css 
2014-02-20 16:55:49 overwrite stylesheets/main.css 
2014-02-20 16:56:32 overwrite stylesheets/main.css 
2014-02-20 17:09:44 overwrite stylesheets/main.css 
2014-02-20 17:10:17 overwrite stylesheets/main.css 
2014-02-20 17:10:43 overwrite stylesheets/main.css 
2014-02-20 17:11:42 overwrite stylesheets/main.css 
2014-02-20 17:11:46 overwrite stylesheets/main.css 
2014-02-20 17:16:43 overwrite stylesheets/main.css 
2014-02-20 17:19:38 overwrite stylesheets/main.css 
2014-02-20 17:21:06 overwrite stylesheets/main.css 
2014-02-20 17:21:19 overwrite stylesheets/main.css 
2014-02-20 17:21:30 overwrite stylesheets/main.css 
2014-02-20 17:22:00 overwrite stylesheets/main.css 
2014-02-20 17:22:26 overwrite stylesheets/main.css 
2014-02-20 17:22:50 overwrite stylesheets/main.css 
2014-02-20 17:22:58 overwrite stylesheets/main.css 
2014-02-20 17:26:01 overwrite stylesheets/main.css 
2014-02-20 17:27:18 identical stylesheets/main.css 
2014-02-20 17:27:18 identical stylesheets/print.css 
2014-02-20 17:27:18 overwrite stylesheets/screen.css 
2014-02-21 09:26:08 identical stylesheets/ie.css 
2014-02-21 09:26:09 overwrite stylesheets/main.css 
2014-02-21 09:26:09 identical stylesheets/print.css 
2014-02-21 09:26:09 identical stylesheets/screen.css 
2014-02-21 09:26:21 identical stylesheets/ie.css 
2014-02-21 09:26:22 overwrite stylesheets/main.css 
2014-02-21 09:26:22 identical stylesheets/print.css 
2014-02-21 09:26:22 identical stylesheets/screen.css 
2014-02-21 09:26:42 identical stylesheets/ie.css 
2014-02-21 09:26:43 overwrite stylesheets/main.css 
2014-02-21 09:26:43 identical stylesheets/print.css 
2014-02-21 09:26:43 identical stylesheets/screen.css 
2014-02-21 11:24:33 overwrite stylesheets/main.css 
2014-02-21 11:43:45 overwrite stylesheets/main.css 
2014-02-26 16:38:53 overwrite stylesheets/main.css 
2014-02-26 16:39:29 overwrite stylesheets/main.css 
2014-02-28 09:42:12 overwrite stylesheets/main.css 
2014-02-28 09:43:00 overwrite stylesheets/main.css 
2014-03-03 09:36:58 overwrite stylesheets/main.css 
2014-03-03 10:10:52 overwrite stylesheets/main.css 
2014-03-03 11:32:02 overwrite stylesheets/main.css 
2014-03-03 11:33:46    remove .sass-cache/ 
2014-03-03 11:33:46    remove stylesheets/ie.css 
2014-03-03 11:33:46    remove stylesheets/main.css 
2014-03-03 11:33:46    remove stylesheets/print.css 
2014-03-03 11:33:46    remove stylesheets/screen.css 
2014-03-03 11:33:46    create stylesheets/ie.css 
2014-03-03 11:33:53    create stylesheets/main.css 
2014-03-03 11:33:53    create stylesheets/print.css 
2014-03-03 11:33:53    create stylesheets/screen.css 
2014-03-03 11:34:36 overwrite stylesheets/main.css 
2014-03-03 11:34:44 overwrite stylesheets/main.css 
2014-03-03 11:42:59 overwrite stylesheets/main.css 
2014-03-05 15:06:19 overwrite stylesheets/main.css 
2014-03-05 15:06:53 overwrite stylesheets/main.css 
2014-03-05 15:07:35 overwrite stylesheets/main.css 
2014-03-06 09:42:52 overwrite stylesheets/main.css 
2014-03-06 09:44:25     error sass/main.scss (Line 51 of sass/_responsive.scss: Invalid CSS after "/*": expected /\//, was " margin: 20px; *")
2014-03-06 09:44:25 overwrite stylesheets/main.css 
2014-03-06 09:54:41     error sass/main.scss (Line 52 of sass/_responsive.scss: Invalid CSS after "/*": expected /\//, was " margin: 20px; *")
2014-03-06 09:54:41 overwrite stylesheets/main.css 
2014-03-06 09:54:58 overwrite stylesheets/main.css 
2014-03-07 09:11:51 overwrite stylesheets/main.css 
2014-03-07 09:13:18 overwrite stylesheets/main.css 
2014-03-07 09:13:59 overwrite stylesheets/main.css 
2014-03-07 09:24:08 overwrite stylesheets/main.css 
2014-03-07 09:25:00 overwrite stylesheets/main.css 
2014-03-07 09:25:56 overwrite stylesheets/main.css 
2014-03-07 09:26:39 overwrite stylesheets/main.css 
2014-03-07 09:26:55 overwrite stylesheets/main.css 
2014-03-07 10:48:49 overwrite stylesheets/main.css 
2014-04-15 09:57:25 overwrite stylesheets/main.css 
2014-04-15 09:57:49    remove .sass-cache/ 
2014-04-15 09:57:49    remove stylesheets/ie.css 
2014-04-15 09:57:49    remove stylesheets/main.css 
2014-04-15 09:57:49    remove stylesheets/print.css 
2014-04-15 09:57:49    remove stylesheets/screen.css 
2014-04-15 09:57:49    create stylesheets/ie.css 
2014-04-15 09:58:00    create stylesheets/main.css 
2014-04-15 09:58:00    create stylesheets/print.css 
2014-04-15 09:58:00    create stylesheets/screen.css 
2014-04-15 09:58:23    remove .sass-cache/ 
2014-04-15 09:58:23    remove stylesheets/ie.css 
2014-04-15 09:58:23    remove stylesheets/main.css 
2014-04-15 09:58:23    remove stylesheets/print.css 
2014-04-15 09:58:23    remove stylesheets/screen.css 
2014-04-15 09:58:23    create stylesheets/ie.css 
2014-04-15 09:58:31    create stylesheets/main.css 
2014-04-15 09:58:31    create stylesheets/print.css 
2014-04-15 09:58:31    create stylesheets/screen.css 
2014-04-15 10:01:32 identical stylesheets/ie.css 
2014-04-15 10:01:32 identical stylesheets/ie.css 
2014-04-15 10:01:40 overwrite stylesheets/main.css 
2014-04-15 10:01:40 identical stylesheets/print.css 
2014-04-15 10:01:40 identical stylesheets/print.css 
2014-04-15 10:01:40 identical stylesheets/screen.css 
2014-04-15 10:02:53 identical stylesheets/ie.css 
2014-04-15 10:02:54 identical stylesheets/ie.css 
2014-04-15 10:02:56 overwrite stylesheets/main.css 
2014-04-15 10:02:56 identical stylesheets/print.css 
2014-04-15 10:02:56 identical stylesheets/screen.css 
2014-04-15 10:02:56 identical stylesheets/main.css 
2014-04-15 10:02:56 identical stylesheets/print.css 
2014-04-15 10:02:56 identical stylesheets/screen.css 
2014-04-15 10:07:52 identical stylesheets/ie.css 
2014-04-15 10:07:52 identical stylesheets/ie.css 
2014-04-15 10:07:54 overwrite stylesheets/main.css 
2014-04-15 10:07:54 identical stylesheets/print.css 
2014-04-15 10:07:54 identical stylesheets/screen.css 
2014-04-15 10:07:54 identical stylesheets/main.css 
2014-04-15 10:07:55 identical stylesheets/print.css 
2014-04-15 10:07:55 identical stylesheets/screen.css 
2014-04-15 10:14:51 identical stylesheets/ie.css 
2014-04-15 10:14:51 identical stylesheets/ie.css 
2014-04-15 10:14:53 overwrite stylesheets/main.css 
2014-04-15 10:14:53 identical stylesheets/print.css 
2014-04-15 10:14:53 identical stylesheets/main.css 
2014-04-15 10:14:53 identical stylesheets/print.css 
2014-04-15 10:14:53 identical stylesheets/screen.css 
2014-04-15 10:14:53 identical stylesheets/screen.css 
2014-04-15 10:16:37 identical stylesheets/ie.css 
2014-04-15 10:16:37 identical stylesheets/ie.css 
2014-04-15 10:16:39 overwrite stylesheets/main.css 
2014-04-15 10:16:39 identical stylesheets/print.css 
2014-04-15 10:16:39 identical stylesheets/main.css 
2014-04-15 10:16:39 identical stylesheets/print.css 
2014-04-15 10:16:39 identical stylesheets/screen.css 
2014-04-15 10:16:39 identical stylesheets/screen.css 
2014-04-15 10:16:49 identical stylesheets/ie.css 
2014-04-15 10:16:49 identical stylesheets/ie.css 
2014-04-15 10:16:51 overwrite stylesheets/main.css 
2014-04-15 10:16:51 identical stylesheets/main.css 
2014-04-15 10:16:51 identical stylesheets/print.css 
2014-04-15 10:16:51 identical stylesheets/print.css 
2014-04-15 10:16:51 identical stylesheets/screen.css 
2014-04-15 10:16:51 identical stylesheets/screen.css 
2014-04-15 10:16:52 identical stylesheets/ie.css 
2014-04-15 10:16:52 identical stylesheets/ie.css 
2014-04-15 10:18:01     error sass/main.scss (Line 13 of sass/_shame.scss: Invalid CSS after "#": expected id name, was ".overlay{")
2014-04-15 10:18:01 overwrite stylesheets/main.css 
2014-04-15 10:18:01 identical stylesheets/print.css 
2014-04-15 10:18:01 identical stylesheets/screen.css 
2014-04-15 10:18:02     error sass/main.scss (Line 13 of sass/_shame.scss: Invalid CSS after "#": expected id name, was ".overlay{")
2014-04-15 10:18:02 identical stylesheets/main.css 
2014-04-15 10:18:02 identical stylesheets/print.css 
2014-04-15 10:18:02 identical stylesheets/screen.css 
2014-04-15 10:18:17 identical stylesheets/ie.css 
2014-04-15 10:18:17 identical stylesheets/ie.css 
2014-04-15 10:18:19 overwrite stylesheets/main.css 
2014-04-15 10:18:19 identical stylesheets/print.css 
2014-04-15 10:18:19 identical stylesheets/screen.css 
2014-04-15 10:18:19 identical stylesheets/main.css 
2014-04-15 10:18:19 identical stylesheets/print.css 
2014-04-15 10:18:19 identical stylesheets/screen.css 
2014-04-15 10:18:22 identical stylesheets/ie.css 
2014-04-15 10:18:22 identical stylesheets/ie.css 
2014-04-15 10:18:24 overwrite stylesheets/main.css 
2014-04-15 10:18:24 identical stylesheets/main.css 
2014-04-15 10:18:24 identical stylesheets/print.css 
2014-04-15 10:18:24 identical stylesheets/print.css 
2014-04-15 10:18:24 identical stylesheets/screen.css 
2014-04-15 10:18:24 identical stylesheets/screen.css 
2014-04-15 10:18:33 identical stylesheets/ie.css 
2014-04-15 10:18:33 identical stylesheets/ie.css 
2014-04-15 10:18:43     error sass/main.scss (Line 28 of sass/_shame.scss: Invalid CSS after "  position": expected ";", was ": fixed;")
2014-04-15 10:18:43 overwrite stylesheets/main.css 
2014-04-15 10:18:43 identical stylesheets/print.css 
2014-04-15 10:18:43 identical stylesheets/screen.css 
2014-04-15 10:18:44 identical stylesheets/ie.css 
2014-04-15 10:18:44     error sass/main.scss (Line 28 of sass/_shame.scss: Invalid CSS after "  position": expected ";", was ": fixed;")
2014-04-15 10:18:44 identical stylesheets/main.css 
2014-04-15 10:18:44 identical stylesheets/print.css 
2014-04-15 10:18:44 identical stylesheets/screen.css 
2014-04-15 10:18:45 identical stylesheets/ie.css 
2014-04-15 10:18:52     error sass/main.scss (Line 28 of sass/_shame.scss: Invalid CSS after "  position": expected ";", was ": fixed;")
2014-04-15 10:18:52 identical stylesheets/main.css 
2014-04-15 10:18:52 identical stylesheets/print.css 
2014-04-15 10:18:52 identical stylesheets/screen.css 
2014-04-15 10:18:56     error sass/main.scss (Line 28 of sass/_shame.scss: Invalid CSS after "  position": expected ";", was ": fixed;")
2014-04-15 10:18:56 identical stylesheets/main.css 
2014-04-15 10:18:56 identical stylesheets/print.css 
2014-04-15 10:18:56 identical stylesheets/screen.css 
2014-04-15 10:19:11 identical stylesheets/ie.css 
2014-04-15 10:19:11 identical stylesheets/ie.css 
2014-04-15 10:19:14     error sass/main.scss (Line 28 of sass/_shame.scss: Invalid CSS after "  position:": expected pseudoclass or pseudoelement, was " fixed;")
2014-04-15 10:19:14 overwrite stylesheets/main.css 
2014-04-15 10:19:14 identical stylesheets/print.css 
2014-04-15 10:19:14 identical stylesheets/screen.css 
2014-04-15 10:19:16     error sass/main.scss (Line 28 of sass/_shame.scss: Invalid CSS after "  position:": expected pseudoclass or pseudoelement, was " fixed;")
2014-04-15 10:19:16 identical stylesheets/main.css 
2014-04-15 10:19:16 identical stylesheets/print.css 
2014-04-15 10:19:16 identical stylesheets/screen.css 
2014-04-15 10:19:55 identical stylesheets/ie.css 
2014-04-15 10:19:55 identical stylesheets/ie.css 
2014-04-15 10:19:57 overwrite stylesheets/main.css 
2014-04-15 10:19:57 identical stylesheets/main.css 
2014-04-15 10:19:57 identical stylesheets/print.css 
2014-04-15 10:19:57 identical stylesheets/print.css 
2014-04-15 10:19:57 identical stylesheets/screen.css 
2014-04-15 10:19:57 identical stylesheets/screen.css 
2014-04-15 10:20:36 identical stylesheets/ie.css 
2014-04-15 10:20:36 identical stylesheets/ie.css 
2014-04-15 10:20:38 overwrite stylesheets/main.css 
2014-04-15 10:20:38 identical stylesheets/main.css 
2014-04-15 10:20:38 identical stylesheets/print.css 
2014-04-15 10:20:38 identical stylesheets/print.css 
2014-04-15 10:20:38 identical stylesheets/screen.css 
2014-04-15 10:20:38 identical stylesheets/screen.css 
2014-04-15 10:20:44 identical stylesheets/ie.css 
2014-04-15 10:20:44 identical stylesheets/ie.css 
2014-04-15 10:20:47 overwrite stylesheets/main.css 
2014-04-15 10:20:47 identical stylesheets/print.css 
2014-04-15 10:20:47 identical stylesheets/main.css 
2014-04-15 10:20:47 identical stylesheets/screen.css 
2014-04-15 10:20:47 identical stylesheets/print.css 
2014-04-15 10:20:47 identical stylesheets/screen.css 
2014-04-15 10:21:01 identical stylesheets/ie.css 
2014-04-15 10:21:01 identical stylesheets/ie.css 
2014-04-15 10:21:03 overwrite stylesheets/main.css 
2014-04-15 10:21:03 identical stylesheets/print.css 
2014-04-15 10:21:03 identical stylesheets/screen.css 
2014-04-15 10:21:11 identical stylesheets/ie.css 
2014-04-15 10:21:11 identical stylesheets/ie.css 
2014-04-15 10:21:12 overwrite stylesheets/main.css 
2014-04-15 10:21:12 identical stylesheets/main.css 
2014-04-15 10:21:12 identical stylesheets/print.css 
2014-04-15 10:21:12 identical stylesheets/print.css 
2014-04-15 10:21:12 identical stylesheets/screen.css 
2014-04-15 10:21:12 identical stylesheets/screen.css 
2014-04-15 10:21:17 identical stylesheets/ie.css 
2014-04-15 10:21:17 identical stylesheets/ie.css 
2014-04-15 10:21:19 overwrite stylesheets/main.css 
2014-04-15 10:21:19 identical stylesheets/print.css 
2014-04-15 10:21:19 identical stylesheets/screen.css 
2014-04-15 10:58:45 identical stylesheets/ie.css 
2014-04-15 10:58:45 identical stylesheets/ie.css 
2014-04-15 10:58:59     error sass/main.scss (Line 26 of sass/_shame.scss: Invalid CSS after "  op": expected "{", was "}")
2014-04-15 10:58:59 overwrite stylesheets/main.css 
2014-04-15 10:58:59 identical stylesheets/print.css 
2014-04-15 10:58:59 identical stylesheets/screen.css 
2014-04-15 10:59:00     error sass/main.scss (Line 26 of sass/_shame.scss: Invalid CSS after "  op": expected "{", was "}")
2014-04-15 10:59:00 identical stylesheets/main.css 
2014-04-15 10:59:00 identical stylesheets/print.css 
2014-04-15 10:59:01 identical stylesheets/screen.css 
2014-04-15 11:09:46 identical stylesheets/ie.css 
2014-04-15 11:09:46 identical stylesheets/ie.css 
2014-04-15 11:09:48 overwrite stylesheets/main.css 
2014-04-15 11:09:48 identical stylesheets/print.css 
2014-04-15 11:09:48 identical stylesheets/screen.css 
2014-04-15 11:10:31 identical stylesheets/ie.css 
2014-04-15 11:10:31 identical stylesheets/ie.css 
2014-04-15 11:10:32 overwrite stylesheets/main.css 
2014-04-15 11:10:32 identical stylesheets/print.css 
2014-04-15 11:10:33 identical stylesheets/main.css 
2014-04-15 11:10:33 identical stylesheets/print.css 
2014-04-15 11:10:33 identical stylesheets/screen.css 
2014-04-15 11:10:33 identical stylesheets/screen.css 
2014-04-15 11:10:38 identical stylesheets/ie.css 
2014-04-15 11:10:38 identical stylesheets/ie.css 
2014-04-15 11:10:41 overwrite stylesheets/main.css 
2014-04-15 11:10:41 identical stylesheets/print.css 
2014-04-15 11:10:41 identical stylesheets/main.css 
2014-04-15 11:10:41 identical stylesheets/print.css 
2014-04-15 11:10:41 identical stylesheets/screen.css 
2014-04-15 11:10:41 identical stylesheets/screen.css 
2014-04-15 11:10:54 identical stylesheets/ie.css 
2014-04-15 11:10:54 identical stylesheets/ie.css 
2014-04-15 11:10:56 identical stylesheets/main.css 
2014-04-15 11:10:56 identical stylesheets/main.css 
2014-04-15 11:10:57 identical stylesheets/print.css 
2014-04-15 11:10:57 identical stylesheets/print.css 
2014-04-15 11:10:57 identical stylesheets/screen.css 
2014-04-15 11:11:27 identical stylesheets/ie.css 
2014-04-15 11:11:27 identical stylesheets/ie.css 
2014-04-15 11:11:29 overwrite stylesheets/main.css 
2014-04-15 11:11:29 overwrite stylesheets/main.css 
2014-04-15 11:11:29 identical stylesheets/print.css 
2014-04-15 11:11:29 identical stylesheets/print.css 
2014-04-15 11:11:29 identical stylesheets/screen.css 
2014-04-15 11:11:29 identical stylesheets/screen.css 
2014-04-15 11:11:45 identical stylesheets/ie.css 
2014-04-15 11:11:45 identical stylesheets/ie.css 
2014-04-15 11:11:47 overwrite stylesheets/main.css 
2014-04-15 11:11:47 identical stylesheets/main.css 
2014-04-15 11:11:47 identical stylesheets/print.css 
2014-04-15 11:11:47 identical stylesheets/print.css 
2014-04-15 11:11:47 identical stylesheets/screen.css 
2014-04-15 11:11:47 identical stylesheets/screen.css 
2014-04-15 11:11:54 identical stylesheets/ie.css 
2014-04-15 11:11:54 identical stylesheets/ie.css 
2014-04-15 11:11:57 overwrite stylesheets/main.css 
2014-04-15 11:11:57 overwrite stylesheets/main.css 
2014-04-15 11:11:57 identical stylesheets/print.css 
2014-04-15 11:11:57 identical stylesheets/screen.css 
2014-04-15 11:11:57 identical stylesheets/print.css 
2014-04-15 11:11:57 identical stylesheets/screen.css 
2014-04-15 11:12:15 identical stylesheets/ie.css 
2014-04-15 11:12:15 identical stylesheets/ie.css 
2014-04-15 11:12:19     error sass/main.scss (Line 35 of sass/_shame.scss: Invalid CSS after "  opacity: 0.9": expected ";", was "=8;")
2014-04-15 11:12:19 overwrite stylesheets/main.css 
2014-04-15 11:12:19 identical stylesheets/print.css 
2014-04-15 11:12:19 identical stylesheets/screen.css 
2014-04-15 11:12:21     error sass/main.scss (Line 35 of sass/_shame.scss: Invalid CSS after "  opacity: 0.9": expected ";", was "=8;")
2014-04-15 11:12:21 identical stylesheets/main.css 
2014-04-15 11:12:21 identical stylesheets/print.css 
2014-04-15 11:12:21 identical stylesheets/screen.css 
2014-04-15 11:12:37 identical stylesheets/ie.css 
2014-04-15 11:12:37 identical stylesheets/ie.css 
2014-04-15 11:12:39 overwrite stylesheets/main.css 
2014-04-15 11:12:39 identical stylesheets/main.css 
2014-04-15 11:12:39 identical stylesheets/print.css 
2014-04-15 11:12:39 identical stylesheets/print.css 
2014-04-15 11:12:39 identical stylesheets/screen.css 
2014-04-15 11:12:39 identical stylesheets/screen.css 
2014-04-15 11:12:50 identical stylesheets/ie.css 
2014-04-15 11:12:50 identical stylesheets/ie.css 
2014-04-15 11:12:53 overwrite stylesheets/main.css 
2014-04-15 11:12:53 overwrite stylesheets/main.css 
2014-04-15 11:12:53 identical stylesheets/print.css 
2014-04-15 11:12:53 identical stylesheets/print.css 
2014-04-15 11:12:53 identical stylesheets/screen.css 
2014-04-15 11:12:53 identical stylesheets/screen.css 
2014-04-15 11:14:30 identical stylesheets/ie.css 
2014-04-15 11:14:30 identical stylesheets/ie.css 
2014-04-15 11:14:32 overwrite stylesheets/main.css 
2014-04-15 11:14:32 overwrite stylesheets/main.css 
2014-04-15 11:14:32 identical stylesheets/print.css 
2014-04-15 11:14:32 identical stylesheets/print.css 
2014-04-15 11:14:32 identical stylesheets/screen.css 
2014-04-15 11:14:32 identical stylesheets/screen.css 
2014-04-15 11:14:33 identical stylesheets/ie.css 
2014-04-15 11:14:33 identical stylesheets/ie.css 
2014-04-15 11:14:35 overwrite stylesheets/main.css 
2014-04-15 11:14:35 overwrite stylesheets/main.css 
2014-04-15 11:14:35 identical stylesheets/print.css 
2014-04-15 11:14:36 identical stylesheets/print.css 
2014-04-15 11:14:36 identical stylesheets/screen.css 
2014-04-15 11:14:36 identical stylesheets/screen.css 
2014-04-15 11:14:44 identical stylesheets/ie.css 
2014-04-15 11:14:44 identical stylesheets/ie.css 
2014-04-15 11:14:46 overwrite stylesheets/main.css 
2014-04-15 11:14:46 identical stylesheets/main.css 
2014-04-15 11:14:46 identical stylesheets/print.css 
2014-04-15 11:14:46 identical stylesheets/print.css 
2014-04-15 11:14:47 identical stylesheets/screen.css 
2014-04-15 11:14:47 identical stylesheets/screen.css 
2014-04-15 11:14:57 identical stylesheets/ie.css 
2014-04-15 11:14:57 identical stylesheets/ie.css 
2014-04-15 11:14:59 overwrite stylesheets/main.css 
2014-04-15 11:14:59 identical stylesheets/print.css 
2014-04-15 11:14:59 identical stylesheets/screen.css 
2014-04-15 11:14:59 identical stylesheets/main.css 
2014-04-15 11:14:59 identical stylesheets/print.css 
2014-04-15 11:14:59 identical stylesheets/screen.css 
2014-04-15 11:15:05 identical stylesheets/ie.css 
2014-04-15 11:15:05 identical stylesheets/ie.css 
2014-04-15 11:15:08 overwrite stylesheets/main.css 
2014-04-15 11:15:08 overwrite stylesheets/main.css 
2014-04-15 11:15:08 identical stylesheets/print.css 
2014-04-15 11:15:08 identical stylesheets/print.css 
2014-04-15 11:15:08 identical stylesheets/screen.css 
2014-04-15 11:15:08 identical stylesheets/screen.css 
2014-04-15 11:15:14 identical stylesheets/ie.css 
2014-04-15 11:15:14 identical stylesheets/ie.css 
2014-04-15 11:15:16 overwrite stylesheets/main.css 
2014-04-15 11:15:16 identical stylesheets/print.css 
2014-04-15 11:15:16 identical stylesheets/screen.css 
2014-04-15 11:15:17 identical stylesheets/main.css 
2014-04-15 11:15:17 identical stylesheets/print.css 
2014-04-15 11:15:17 identical stylesheets/screen.css 
2014-04-15 11:15:26 identical stylesheets/ie.css 
2014-04-15 11:15:26 identical stylesheets/ie.css 
2014-04-15 11:15:28 overwrite stylesheets/main.css 
2014-04-15 11:15:28 identical stylesheets/print.css 
2014-04-15 11:15:28 identical stylesheets/main.css 
2014-04-15 11:15:28 identical stylesheets/print.css 
2014-04-15 11:15:28 identical stylesheets/screen.css 
2014-04-15 11:15:29 identical stylesheets/screen.css 
2014-04-15 11:15:29 identical stylesheets/ie.css 
2014-04-15 11:15:30 identical stylesheets/ie.css 
2014-04-15 11:15:31 overwrite stylesheets/main.css 
2014-04-15 11:15:31 identical stylesheets/print.css 
2014-04-15 11:15:32 identical stylesheets/main.css 
2014-04-15 11:15:32 identical stylesheets/screen.css 
2014-04-15 11:15:32 identical stylesheets/print.css 
2014-04-15 11:15:32 identical stylesheets/screen.css 
2014-04-15 11:17:46 identical stylesheets/ie.css 
2014-04-15 11:17:46 identical stylesheets/ie.css 
2014-04-15 11:17:48 overwrite stylesheets/main.css 
2014-04-15 11:17:48 identical stylesheets/print.css 
2014-04-15 11:17:48 identical stylesheets/screen.css 
2014-04-15 11:34:46 identical stylesheets/ie.css 
2014-04-15 11:34:46 identical stylesheets/ie.css 
2014-04-15 11:34:48 overwrite stylesheets/main.css 
2014-04-15 11:34:48 identical stylesheets/print.css 
2014-04-15 11:34:48 identical stylesheets/screen.css 
2014-04-15 11:35:36 identical stylesheets/ie.css 
2014-04-15 11:35:36 identical stylesheets/ie.css 
2014-04-15 11:35:38 overwrite stylesheets/main.css 
2014-04-15 11:35:38 identical stylesheets/print.css 
2014-04-15 11:35:38 identical stylesheets/main.css 
2014-04-15 11:35:38 identical stylesheets/screen.css 
2014-04-15 11:35:38 identical stylesheets/print.css 
2014-04-15 11:35:39 identical stylesheets/screen.css 
2014-04-15 11:36:34 identical stylesheets/ie.css 
2014-04-15 11:36:34 identical stylesheets/ie.css 
2014-04-15 11:36:36 overwrite stylesheets/main.css 
2014-04-15 11:36:36 identical stylesheets/main.css 
2014-04-15 11:36:36 identical stylesheets/print.css 
2014-04-15 11:36:36 identical stylesheets/print.css 
2014-04-15 11:36:36 identical stylesheets/screen.css 
2014-04-15 11:36:36 identical stylesheets/screen.css 
2014-04-15 11:36:56 identical stylesheets/ie.css 
2014-04-15 11:36:56 identical stylesheets/ie.css 
2014-04-15 11:36:58 overwrite stylesheets/main.css 
2014-04-15 11:36:58 identical stylesheets/print.css 
2014-04-15 11:36:58 identical stylesheets/screen.css 
2014-04-15 11:46:51 identical stylesheets/ie.css 
2014-04-15 11:46:51 identical stylesheets/ie.css 
2014-04-15 11:46:52 overwrite stylesheets/main.css 
2014-04-15 11:46:52 overwrite stylesheets/main.css 
2014-04-15 11:46:52 identical stylesheets/print.css 
2014-04-15 11:46:52 identical stylesheets/print.css 
2014-04-15 11:46:52 identical stylesheets/screen.css 
2014-04-15 11:46:52 identical stylesheets/screen.css 
2014-04-15 11:47:09 identical stylesheets/ie.css 
2014-04-15 11:47:09 identical stylesheets/ie.css 
2014-04-15 11:47:12 overwrite stylesheets/main.css 
2014-04-15 11:47:12 identical stylesheets/print.css 
2014-04-15 11:47:12 identical stylesheets/screen.css 
