2014-02-18 13:51:43 overwrite css/main.css 
2014-02-18 13:51:43 identical css/screen.css 
2014-02-18 13:52:05    remove .sass-cache/ 
2014-02-18 13:52:05    remove css/ie.css 
2014-02-18 13:52:05    remove css/main.css 
2014-02-18 13:52:05    remove css/print.css 
2014-02-18 13:52:05    remove css/screen.css 
2014-02-18 13:52:05    create css/ie.css 
2014-02-18 13:52:07    create css/main.css 
2014-02-18 13:52:07    create css/print.css 
2014-02-18 13:52:07    create css/screen.css 
2014-02-18 13:52:12 identical css/main.css 
2014-02-18 13:52:57 identical css/main.css 
2014-02-18 13:54:07 overwrite css/main.css 
2014-02-18 13:54:36 overwrite css/main.css 
2014-02-21 09:34:41 identical css/ie.css 
2014-02-21 09:34:43 identical css/main.css 
2014-02-21 09:34:43 identical css/print.css 
2014-02-21 09:34:43 identical css/screen.css 
2014-02-21 10:14:08 overwrite css/main.css 
2014-02-21 10:14:13 overwrite css/main.css 
2014-02-21 10:14:35 overwrite css/main.css 
2014-02-21 11:59:16    remove .sass-cache/ 
2014-02-21 11:59:16    remove css/ie.css 
2014-02-21 11:59:16    remove css/main.css 
2014-02-21 11:59:16    remove css/print.css 
2014-02-21 11:59:16    remove css/screen.css 
2014-02-21 11:59:16    create css/ie.css 
2014-02-21 11:59:18    create css/main.css 
2014-02-21 11:59:18    create css/print.css 
2014-02-21 11:59:18    create css/screen.css 
2014-02-21 12:00:36 overwrite css/main.css 
2014-02-21 12:01:17 overwrite css/main.css 
2014-02-21 12:01:37 overwrite css/main.css 
2014-02-21 12:02:26 overwrite css/main.css 
2014-02-21 12:02:34 identical css/main.css 
2014-02-21 12:03:10 overwrite css/main.css 
2014-02-21 12:04:48 overwrite css/main.css 
2014-02-21 12:05:02 overwrite css/main.css 
2014-02-21 12:05:41 overwrite css/main.css 
2014-02-21 14:17:24 overwrite css/main.css 
2014-02-21 14:17:25 identical css/main.css 
2014-02-24 16:01:32 identical css/ie.css 
2014-02-24 16:01:33 identical css/print.css 
2014-02-24 16:01:34 identical css/screen.css 
2014-02-24 16:02:21 identical css/main.css 
2014-02-24 16:02:33     error css/scss/main.scss (Line 228 of css/scss/_forms.scss: Invalid CSS after "...t-variants-form": expected "{", was "")
2014-02-24 16:02:34 overwrite css/main.css 
2014-02-24 16:11:06 overwrite css/main.css 
2014-02-24 16:11:11 overwrite css/main.css 
2014-02-24 16:12:40 overwrite css/main.css 
2014-02-24 16:12:50 overwrite css/main.css 
2014-02-24 16:13:35    remove .sass-cache/ 
2014-02-24 16:13:35    remove css/ie.css 
2014-02-24 16:13:35    remove css/main.css 
2014-02-24 16:13:35    remove css/print.css 
2014-02-24 16:13:35    remove css/screen.css 
2014-02-24 16:13:35    create css/ie.css 
2014-02-24 16:13:38    create css/main.css 
2014-02-24 16:13:38    create css/print.css 
2014-02-24 16:13:38    create css/screen.css 
2014-03-18 09:48:31    create css/main.css 
2014-03-18 09:49:11     error css/scss/main.scss (Line 42: File to import not found or unreadable: content-tabs.
Load paths:
  /var/www/co3-lynx/core/public/core/css/scss
  /home/master-d/compass.app/lib/ruby/compass_0.12/compass-0.12.2/frameworks/blueprint/stylesheets
  /home/master-d/compass.app/lib/ruby/compass_0.12/compass-0.12.2/frameworks/compass/stylesheets
  /home/master-d/compass.app/lib/ruby/compass_extensions/compass-960-plugin-0.10.4/stylesheets
  /home/master-d/compass.app/lib/ruby/compass_extensions/compass-h5bp-0.1.1/stylesheets
  /home/master-d/compass.app/lib/ruby/compass_extensions/compass-normalize-1.4.3/stylesheets
  /home/master-d/compass.app/lib/ruby/compass_extensions/bootstrap-sass-2.3.2.1/vendor/assets/stylesheets
  /home/master-d/compass.app/lib/ruby/compass_extensions/susy-1.0.9/sass
  /home/master-d/compass.app/lib/ruby/compass_extensions/zurb-foundation-4.3.1/scss
  Compass::SpriteImporter
  /home/master-d/vendor/assets/stylesheets)
2014-03-18 09:49:11 overwrite css/main.css 
2014-03-18 09:49:13     error css/scss/main.scss (Line 42: File to import not found or unreadable: content-tabs.
Load paths:
  /var/www/co3-lynx/core/public/core/css/scss
  /home/master-d/compass.app/lib/ruby/compass_0.12/compass-0.12.2/frameworks/blueprint/stylesheets
  /home/master-d/compass.app/lib/ruby/compass_0.12/compass-0.12.2/frameworks/compass/stylesheets
  /home/master-d/compass.app/lib/ruby/compass_extensions/compass-960-plugin-0.10.4/stylesheets
  /home/master-d/compass.app/lib/ruby/compass_extensions/compass-h5bp-0.1.1/stylesheets
  /home/master-d/compass.app/lib/ruby/compass_extensions/compass-normalize-1.4.3/stylesheets
  /home/master-d/compass.app/lib/ruby/compass_extensions/bootstrap-sass-2.3.2.1/vendor/assets/stylesheets
  /home/master-d/compass.app/lib/ruby/compass_extensions/susy-1.0.9/sass
  /home/master-d/compass.app/lib/ruby/compass_extensions/zurb-foundation-4.3.1/scss
  Compass::SpriteImporter
  /home/master-d/vendor/assets/stylesheets)
2014-03-18 09:49:13 overwrite css/main.css 
2014-03-18 09:49:24 overwrite css/main.css 
2014-03-18 09:49:41 overwrite css/main.css 
2014-03-18 09:49:49 overwrite css/main.css 
2014-03-18 09:50:23 identical css/main.css 
2014-03-18 09:50:29 identical css/main.css 
2014-03-18 09:50:50 overwrite css/main.css 
2014-03-18 09:50:57 overwrite css/main.css 
2014-03-18 09:51:21     error css/scss/main.scss (Line 32: Invalid CSS after "@import": expected file to import (string or url()), was ": "header";")
2014-03-18 09:51:21 overwrite css/main.css 
2014-03-18 09:51:26 overwrite css/main.css 
2014-03-18 09:52:45 overwrite css/main.css 
2014-03-18 09:52:51 overwrite css/main.css 
2014-03-18 09:53:01 overwrite css/main.css 
2014-03-18 09:53:07 overwrite css/main.css 
2014-03-18 09:53:17 overwrite css/main.css 
2014-03-18 09:53:26 overwrite css/main.css 
2014-03-18 09:53:55 identical css/main.css 
2014-03-18 09:54:02 overwrite css/main.css 
2014-03-18 09:54:12 overwrite css/main.css 
2014-03-18 09:54:40 overwrite css/main.css 
2014-03-18 09:55:01 overwrite css/main.css 
2014-03-18 09:55:15 overwrite css/main.css 
2014-03-18 09:55:44 overwrite css/main.css 
2014-03-18 09:55:51 identical css/main.css 
2014-03-18 09:56:02 overwrite css/main.css 
2014-03-18 09:56:08 overwrite css/main.css 
2014-03-18 10:00:19 overwrite css/main.css 
2014-03-18 10:00:37 overwrite css/main.css 
2014-03-18 10:00:52 overwrite css/main.css 
2014-03-18 10:00:57 overwrite css/main.css 
2014-03-18 10:01:05 overwrite css/main.css 
2014-03-18 10:01:14 overwrite css/main.css 
2014-03-18 10:01:27 overwrite css/main.css 
2014-03-18 10:01:33 overwrite css/main.css 
2014-03-18 10:16:43 overwrite css/main.css 
2014-03-18 10:16:56 overwrite css/main.css 
2014-03-18 10:17:27 overwrite css/main.css 
2014-03-18 10:25:03    remove .sass-cache/ 
2014-03-18 10:25:03    remove css/main.css 
2014-03-18 10:25:05    create css/main.css 
2014-03-18 10:29:10     error css/scss/main.scss (Line 33 of css/scss/_layout.scss: Invalid CSS after "}": expected "}", was "")
2014-03-18 10:29:10 overwrite css/main.css 
2014-03-18 10:29:24 overwrite css/main.css 
2014-03-18 10:29:29     error css/scss/main.scss (Line 45 of css/scss/_layout.scss: Invalid CSS after "  }": expected "}", was "")
2014-03-18 10:29:29 overwrite css/main.css 
2014-03-18 10:29:49 overwrite css/main.css 
2014-03-18 10:29:51 identical css/main.css 
2014-03-18 10:30:00 overwrite css/main.css 
2014-03-18 10:30:18 overwrite css/main.css 
2014-03-18 10:30:23 overwrite css/main.css 
2014-03-18 10:30:28 overwrite css/main.css 
2014-03-18 10:30:33 overwrite css/main.css 
2014-03-18 10:30:38 overwrite css/main.css 
2014-03-18 10:31:12 overwrite css/main.css 
2014-03-18 10:38:44 overwrite css/main.css 
2014-03-18 10:39:04 overwrite css/main.css 
2014-03-18 10:39:10 identical css/main.css 
2014-03-18 10:39:28    remove .sass-cache/ 
2014-03-18 10:39:28    remove css/main.css 
2014-03-18 10:39:30    create css/main.css 
2014-03-18 10:44:30 overwrite css/main.css 
2014-03-18 10:46:52 overwrite css/main.css 
2014-03-18 10:47:22 overwrite css/main.css 
2014-03-18 10:53:10 overwrite css/main.css 
2014-03-18 10:53:16 overwrite css/main.css 
2014-03-18 10:55:52 overwrite css/main.css 
2014-03-18 10:55:59 overwrite css/main.css 
2014-03-18 10:56:26 overwrite css/main.css 
2014-03-18 10:56:54 overwrite css/main.css 
2014-03-18 10:58:17 overwrite css/main.css 
2014-03-18 10:58:23 overwrite css/main.css 
2014-03-18 10:58:30 overwrite css/main.css 
2014-03-18 10:58:42 overwrite css/main.css 
2014-03-18 10:59:02 overwrite css/main.css 
2014-03-18 10:59:13 overwrite css/main.css 
2014-03-18 10:59:16 overwrite css/main.css 
2014-03-18 11:03:53 overwrite css/main.css 
2014-03-18 11:04:15 overwrite css/main.css 
2014-03-18 11:04:31 overwrite css/main.css 
2014-03-18 11:04:38 overwrite css/main.css 
2014-03-18 11:05:17 overwrite css/main.css 
2014-03-18 11:05:37 overwrite css/main.css 
2014-03-18 11:06:11 overwrite css/main.css 
2014-03-18 11:06:52 overwrite css/main.css 
2014-03-18 11:07:05 overwrite css/main.css 
2014-03-18 11:07:20 overwrite css/main.css 
2014-03-18 11:07:36 identical css/main.css 
2014-03-18 11:07:45 overwrite css/main.css 
2014-03-18 11:07:50 overwrite css/main.css 
2014-03-18 11:07:55 overwrite css/main.css 
2014-03-18 11:08:15 overwrite css/main.css 
2014-03-18 11:08:36 overwrite css/main.css 
2014-03-18 11:08:43 overwrite css/main.css 
2014-03-18 11:09:05 overwrite css/main.css 
2014-03-18 11:10:03 overwrite css/main.css 
2014-03-18 11:10:46 overwrite css/main.css 
2014-03-18 11:11:29 overwrite css/main.css 
2014-03-18 11:12:13 overwrite css/main.css 
2014-03-18 11:12:34 overwrite css/main.css 
2014-03-18 11:14:03 overwrite css/main.css 
2014-03-18 11:17:45 overwrite css/main.css 
2014-03-18 11:17:54 overwrite css/main.css 
2014-03-18 11:18:34 overwrite css/main.css 
2014-03-18 11:18:50 overwrite css/main.css 
2014-03-18 11:18:59 overwrite css/main.css 
2014-03-18 11:19:13 overwrite css/main.css 
2014-03-18 11:19:17 overwrite css/main.css 
2014-03-18 11:19:25 overwrite css/main.css 
2014-03-18 11:20:37 overwrite css/main.css 
2014-03-18 11:22:59 overwrite css/main.css 
2014-03-18 11:23:24 overwrite css/main.css 
2014-03-18 11:24:12 overwrite css/main.css 
2014-03-18 11:29:01 overwrite css/main.css 
2014-03-18 11:29:27 overwrite css/main.css 
2014-03-18 11:29:39 overwrite css/main.css 
2014-03-18 11:30:14 overwrite css/main.css 
2014-03-18 11:30:29 overwrite css/main.css 
2014-03-18 11:31:06 overwrite css/main.css 
2014-03-18 11:31:16 overwrite css/main.css 
2014-03-18 11:34:35 overwrite css/main.css 
2014-03-18 11:35:17 overwrite css/main.css 
2014-03-18 11:35:27 overwrite css/main.css 
2014-03-18 11:35:32 overwrite css/main.css 
2014-03-18 11:35:48 overwrite css/main.css 
2014-03-18 11:36:29 overwrite css/main.css 
2014-03-18 11:36:40 overwrite css/main.css 
2014-03-18 11:36:58 overwrite css/main.css 
2014-03-18 11:37:03 overwrite css/main.css 
2014-03-18 11:37:23 overwrite css/main.css 
2014-03-18 11:37:52 overwrite css/main.css 
2014-03-19 16:34:05     error css/scss/main.scss (Line 152 of css/scss/_header.scss: Invalid CSS after "}": expected "}", was "")
2014-03-19 16:34:05 overwrite css/main.css 
2014-03-19 16:34:16 overwrite css/main.css 
2014-03-19 16:37:36 overwrite css/main.css 
2014-03-19 16:37:54 overwrite css/main.css 
2014-03-19 16:38:01 overwrite css/main.css 
2014-03-19 16:40:31 overwrite css/main.css 
2014-03-19 16:40:53 overwrite css/main.css 
2014-03-19 16:42:35 overwrite css/main.css 
2014-03-19 16:42:45 overwrite css/main.css 
2014-03-19 16:51:02 overwrite css/main.css 
2014-03-19 16:51:11 overwrite css/main.css 
2014-03-19 16:51:22 overwrite css/main.css 
2014-03-19 16:51:56 overwrite css/main.css 
2014-03-20 13:37:23 overwrite css/main.css 
2014-03-20 13:37:53 overwrite css/main.css 
2014-03-20 13:38:05 overwrite css/main.css 
2014-03-20 13:38:15 overwrite css/main.css 
2014-03-20 13:38:38 overwrite css/main.css 
2014-03-20 13:38:53 overwrite css/main.css 
2014-03-20 13:39:03 identical css/main.css 
2014-03-20 13:39:21 overwrite css/main.css 
2014-03-20 13:46:19 overwrite css/main.css 
2014-03-20 13:46:26 overwrite css/main.css 
2014-03-20 13:46:32 overwrite css/main.css 
2014-03-20 13:46:37 overwrite css/main.css 
2014-03-20 13:46:49 overwrite css/main.css 
2014-03-20 13:47:15 overwrite css/main.css 
2014-03-20 13:47:21 overwrite css/main.css 
2014-03-20 13:49:19 overwrite css/main.css 
2014-03-20 13:49:36 overwrite css/main.css 
2014-03-20 13:49:42 overwrite css/main.css 
2014-03-20 13:49:55 overwrite css/main.css 
2014-03-20 13:50:18 overwrite css/main.css 
2014-03-20 13:51:27 overwrite css/main.css 
2014-03-20 13:52:44 overwrite css/main.css 
2014-03-20 13:53:13 overwrite css/main.css 
2014-03-20 14:02:20 overwrite css/main.css 
2014-03-20 14:02:42 overwrite css/main.css 
2014-03-20 14:03:23 overwrite css/main.css 
2014-03-20 14:03:29 overwrite css/main.css 
2014-03-20 14:04:07 overwrite css/main.css 
2014-03-20 14:04:40 overwrite css/main.css 
2014-03-20 14:04:50 overwrite css/main.css 
2014-03-20 14:18:46 overwrite css/main.css 
2014-03-20 14:18:51 overwrite css/main.css 
2014-03-20 14:26:07 overwrite css/main.css 
2014-03-20 14:26:18 overwrite css/main.css 
2014-03-20 14:26:24 overwrite css/main.css 
2014-03-20 14:26:34 overwrite css/main.css 
2014-03-20 14:26:43 overwrite css/main.css 
2014-03-20 14:26:49 overwrite css/main.css 
2014-03-20 14:27:35 overwrite css/main.css 
2014-03-20 14:27:42 overwrite css/main.css 
2014-03-20 14:27:47 overwrite css/main.css 
2014-03-20 14:27:52 overwrite css/main.css 
2014-03-20 14:28:01 overwrite css/main.css 
2014-03-20 14:28:21 overwrite css/main.css 
2014-03-20 14:28:30 overwrite css/main.css 
2014-03-20 14:29:10 overwrite css/main.css 
2014-03-20 14:29:16 overwrite css/main.css 
2014-03-20 14:29:24 overwrite css/main.css 
2014-03-20 14:29:30 overwrite css/main.css 
2014-03-20 14:30:25 overwrite css/main.css 
2014-03-20 14:30:31 overwrite css/main.css 
2014-03-20 14:30:50 overwrite css/main.css 
2014-03-20 14:30:56 overwrite css/main.css 
2014-03-20 14:31:04 overwrite css/main.css 
2014-03-20 14:31:35 overwrite css/main.css 
2014-03-20 14:33:15 overwrite css/main.css 
2014-03-20 14:34:05 overwrite css/main.css 
2014-03-20 14:34:11 overwrite css/main.css 
2014-03-20 14:34:43 overwrite css/main.css 
2014-03-20 14:35:31 overwrite css/main.css 
2014-03-20 16:41:59 overwrite css/main.css 
2014-03-20 16:44:05 overwrite css/main.css 
2014-03-20 16:44:18 overwrite css/main.css 
2014-03-20 16:46:06 identical css/main.css 
2014-03-20 17:06:38 overwrite css/main.css 
2014-03-20 17:06:58 overwrite css/main.css 
2014-03-20 17:07:12 overwrite css/main.css 
2014-03-20 17:07:32 overwrite css/main.css 
2014-03-20 17:07:40 overwrite css/main.css 
2014-03-20 17:08:04 overwrite css/main.css 
2014-03-20 17:08:44 overwrite css/main.css 
2014-03-20 17:09:23 overwrite css/main.css 
2014-03-20 17:15:38 overwrite css/main.css 
2014-03-20 17:17:45 overwrite css/main.css 
2014-03-20 17:17:59 overwrite css/main.css 
2014-03-20 17:18:23 overwrite css/main.css 
2014-03-20 17:19:40 overwrite css/main.css 
2014-03-20 17:21:57 overwrite css/main.css 
2014-03-20 17:22:02 overwrite css/main.css 
2014-03-20 17:22:41 overwrite css/main.css 
2014-03-20 17:22:57 overwrite css/main.css 
2014-03-20 17:23:08 overwrite css/main.css 
2014-03-20 17:23:30 overwrite css/main.css 
2014-03-20 17:23:37 overwrite css/main.css 
2014-03-20 17:23:55 overwrite css/main.css 
2014-03-20 17:24:50 overwrite css/main.css 
2014-03-20 17:25:24 overwrite css/main.css 
2014-03-20 17:25:37 overwrite css/main.css 
2014-03-20 17:25:53 overwrite css/main.css 
2014-03-20 17:26:16 overwrite css/main.css 
2014-03-20 17:26:22 overwrite css/main.css 
2014-03-20 17:27:04 overwrite css/main.css 
2014-03-20 17:27:11 overwrite css/main.css 
2014-03-20 17:27:16 overwrite css/main.css 
2014-03-20 17:27:22 overwrite css/main.css 
2014-03-20 17:27:28 overwrite css/main.css 
2014-03-20 17:27:33 overwrite css/main.css 
2014-03-20 17:27:50 overwrite css/main.css 
2014-03-20 17:28:09 overwrite css/main.css 
2014-03-20 17:28:41 overwrite css/main.css 
2014-03-21 10:28:04 overwrite css/main.css 
2014-03-21 10:28:35 overwrite css/main.css 
2014-03-21 10:28:47     error css/scss/main.scss (Line 22 of css/scss/_layout.scss: Undefined variable: "$blues".)
2014-03-21 10:28:47 overwrite css/main.css 
2014-03-21 10:28:51 overwrite css/main.css 
2014-03-21 10:28:56 overwrite css/main.css 
2014-03-21 10:32:18 overwrite css/main.css 
2014-03-21 10:32:49 overwrite css/main.css 
2014-03-21 10:33:02 overwrite css/main.css 
2014-03-21 10:38:22 overwrite css/main.css 
2014-03-21 10:38:31 overwrite css/main.css 
2014-03-21 10:38:42 overwrite css/main.css 
2014-03-21 10:40:52 overwrite css/main.css 
2014-03-21 10:42:11 overwrite css/main.css 
2014-03-21 10:44:04 overwrite css/main.css 
2014-03-21 10:44:10 overwrite css/main.css 
2014-03-21 10:44:16 overwrite css/main.css 
2014-03-21 10:44:59 overwrite css/main.css 
2014-03-21 10:45:25 overwrite css/main.css 
2014-03-21 10:45:38 overwrite css/main.css 
2014-03-21 10:46:20 overwrite css/main.css 
2014-03-21 10:46:30 overwrite css/main.css 
2014-03-21 10:47:02 overwrite css/main.css 
2014-03-21 10:47:11 overwrite css/main.css 
2014-03-21 10:49:05 overwrite css/main.css 
2014-03-21 10:49:12 overwrite css/main.css 
2014-03-21 10:49:25 overwrite css/main.css 
2014-03-21 10:50:35 overwrite css/main.css 
2014-03-21 10:50:55 overwrite css/main.css 
2014-03-21 10:51:02 overwrite css/main.css 
2014-03-21 10:51:22 overwrite css/main.css 
2014-03-21 10:51:34 overwrite css/main.css 
2014-03-21 10:51:53 overwrite css/main.css 
2014-03-21 10:52:05 overwrite css/main.css 
2014-03-21 10:52:06 identical css/main.css 
2014-03-21 10:52:12 overwrite css/main.css 
2014-03-21 10:52:56 overwrite css/main.css 
2014-03-21 10:53:10 overwrite css/main.css 
2014-03-21 10:54:01 overwrite css/main.css 
2014-03-21 10:54:35 overwrite css/main.css 
2014-03-21 10:55:45 overwrite css/main.css 
2014-03-21 10:57:11 overwrite css/main.css 
2014-03-21 10:57:24 overwrite css/main.css 
2014-03-21 10:57:55     error css/scss/main.scss (Line 64 of css/scss/_header.scss: Invalid CSS after "  }": expected selector or at-rule, was "}")
2014-03-21 10:57:55 overwrite css/main.css 
2014-03-21 10:58:12 overwrite css/main.css 
2014-03-21 10:58:42 overwrite css/main.css 
2014-03-21 11:00:47 overwrite css/main.css 
2014-03-21 11:01:00 overwrite css/main.css 
2014-03-21 11:05:52 overwrite css/main.css 
2014-03-21 11:06:36 overwrite css/main.css 
2014-03-21 11:06:46 overwrite css/main.css 
2014-03-21 11:06:52 overwrite css/main.css 
2014-03-21 11:07:01 overwrite css/main.css 
2014-03-21 11:07:52 overwrite css/main.css 
2014-03-21 11:08:11 overwrite css/main.css 
2014-03-21 11:09:57 overwrite css/main.css 
2014-03-21 11:10:09 overwrite css/main.css 
2014-03-21 11:10:38 overwrite css/main.css 
2014-03-21 11:11:06 overwrite css/main.css 
2014-03-21 11:11:21 overwrite css/main.css 
2014-03-21 11:11:30 overwrite css/main.css 
2014-03-21 11:11:37 overwrite css/main.css 
2014-03-21 11:12:39 overwrite css/main.css 
2014-03-21 11:12:48 overwrite css/main.css 
2014-03-21 11:13:01 overwrite css/main.css 
2014-03-21 11:13:09 overwrite css/main.css 
2014-03-21 11:14:08 overwrite css/main.css 
2014-03-21 11:14:31 overwrite css/main.css 
2014-03-21 11:14:35 overwrite css/main.css 
2014-03-21 11:14:51 overwrite css/main.css 
2014-03-21 11:15:24 overwrite css/main.css 
2014-03-21 11:15:41 overwrite css/main.css 
2014-03-21 11:15:46 overwrite css/main.css 
2014-03-21 11:15:53 overwrite css/main.css 
2014-03-21 11:16:23 overwrite css/main.css 
2014-03-21 11:16:45 overwrite css/main.css 
2014-03-21 11:17:42 overwrite css/main.css 
2014-03-21 11:20:16 overwrite css/main.css 
2014-03-21 11:20:54 overwrite css/main.css 
2014-03-21 11:21:24 overwrite css/main.css 
2014-03-21 11:21:32 overwrite css/main.css 
2014-03-21 11:21:43 overwrite css/main.css 
2014-03-21 11:22:01 overwrite css/main.css 
2014-03-21 11:22:06 overwrite css/main.css 
2014-03-21 11:22:13 overwrite css/main.css 
2014-03-21 11:22:43 overwrite css/main.css 
2014-03-21 11:22:57 overwrite css/main.css 
2014-03-21 11:23:09 overwrite css/main.css 
2014-03-21 11:23:14 overwrite css/main.css 
2014-03-21 11:23:21 overwrite css/main.css 
2014-03-21 11:23:55 overwrite css/main.css 
2014-03-21 11:27:30 overwrite css/main.css 
2014-03-21 11:28:27 overwrite css/main.css 
2014-03-21 11:30:23 overwrite css/main.css 
2014-03-21 11:30:58 overwrite css/main.css 
2014-03-21 11:31:57 overwrite css/main.css 
2014-03-21 11:34:17 overwrite css/main.css 
2014-03-21 11:34:44 overwrite css/main.css 
2014-03-21 11:35:11 overwrite css/main.css 
2014-03-21 11:35:47 overwrite css/main.css 
2014-03-21 11:36:01 overwrite css/main.css 
2014-03-21 11:36:25 overwrite css/main.css 
2014-03-21 11:37:00 overwrite css/main.css 
2014-03-21 11:37:40 overwrite css/main.css 
2014-03-21 11:37:59 overwrite css/main.css 
2014-03-21 11:38:42 overwrite css/main.css 
2014-03-21 11:38:56 overwrite css/main.css 
2014-03-21 11:39:03 overwrite css/main.css 
2014-03-21 11:39:12 identical css/main.css 
2014-03-21 11:40:02 overwrite css/main.css 
2014-03-21 11:41:38 overwrite css/main.css 
2014-03-21 11:42:14 overwrite css/main.css 
2014-03-21 11:42:46 overwrite css/main.css 
2014-03-21 11:43:17 overwrite css/main.css 
2014-03-21 11:46:35 overwrite css/main.css 
2014-03-21 11:47:17 overwrite css/main.css 
2014-03-21 11:47:33 overwrite css/main.css 
2014-03-21 11:47:43 overwrite css/main.css 
2014-03-21 11:49:07 overwrite css/main.css 
2014-03-21 11:49:15     error css/scss/main.scss (Line 74 of css/scss/_header.scss: Invalid CSS after "...  span:padding:": expected pseudoclass or pseudoelement, was "1px;")
2014-03-21 11:49:15 overwrite css/main.css 
2014-03-21 11:49:22 overwrite css/main.css 
2014-03-21 11:49:33     error css/scss/main.scss (Line 76 of css/scss/_header.scss: Invalid CSS after "...       padding:": expected pseudoclass or pseudoelement, was " 1px;")
2014-03-21 11:49:33 overwrite css/main.css 
2014-03-21 11:49:37 overwrite css/main.css 
2014-03-21 11:49:47 overwrite css/main.css 
2014-03-21 11:50:21 overwrite css/main.css 
2014-03-21 11:50:27 overwrite css/main.css 
2014-03-21 11:50:40 overwrite css/main.css 
2014-03-21 11:50:51 overwrite css/main.css 
2014-03-21 11:51:51 overwrite css/main.css 
2014-03-21 11:52:01 overwrite css/main.css 
2014-03-21 11:52:41 overwrite css/main.css 
2014-03-21 11:55:06 overwrite css/main.css 
2014-03-21 11:55:31 overwrite css/main.css 
2014-03-21 11:55:44 overwrite css/main.css 
2014-03-21 11:56:06 overwrite css/main.css 
2014-03-21 11:56:25 overwrite css/main.css 
2014-03-21 11:56:33 overwrite css/main.css 
2014-03-21 11:56:44 overwrite css/main.css 
2014-03-21 11:57:21 identical css/main.css 
2014-03-21 11:57:30 overwrite css/main.css 
2014-03-21 12:00:23 overwrite css/main.css 
2014-03-21 12:10:55 overwrite css/main.css 
2014-03-21 12:12:28 overwrite css/main.css 
2014-03-21 12:12:36 overwrite css/main.css 
2014-03-21 12:12:50 overwrite css/main.css 
2014-03-21 12:12:57 overwrite css/main.css 
2014-03-21 12:13:03 overwrite css/main.css 
2014-03-21 12:13:09 overwrite css/main.css 
2014-03-21 13:55:09     error css/scss/main.scss (Line 48: File to import not found or unreadable: admin-dash.
Load paths:
  /var/www/co3-lynx/core/public/core/css/scss
  /home/master-d/compass.app/lib/ruby/compass_0.12/compass-0.12.2/frameworks/blueprint/stylesheets
  /home/master-d/compass.app/lib/ruby/compass_0.12/compass-0.12.2/frameworks/compass/stylesheets
  /home/master-d/compass.app/lib/ruby/compass_extensions/compass-960-plugin-0.10.4/stylesheets
  /home/master-d/compass.app/lib/ruby/compass_extensions/compass-h5bp-0.1.1/stylesheets
  /home/master-d/compass.app/lib/ruby/compass_extensions/compass-normalize-1.4.3/stylesheets
  /home/master-d/compass.app/lib/ruby/compass_extensions/bootstrap-sass-2.3.2.1/vendor/assets/stylesheets
  /home/master-d/compass.app/lib/ruby/compass_extensions/susy-1.0.9/sass
  /home/master-d/compass.app/lib/ruby/compass_extensions/zurb-foundation-4.3.1/scss
  Compass::SpriteImporter
  /home/master-d/vendor/assets/stylesheets)
2014-03-21 13:55:09 overwrite css/main.css 
2014-03-21 13:55:10     error css/scss/main.scss (Line 48: File to import not found or unreadable: admin-dash.
Load paths:
  /var/www/co3-lynx/core/public/core/css/scss
  /home/master-d/compass.app/lib/ruby/compass_0.12/compass-0.12.2/frameworks/blueprint/stylesheets
  /home/master-d/compass.app/lib/ruby/compass_0.12/compass-0.12.2/frameworks/compass/stylesheets
  /home/master-d/compass.app/lib/ruby/compass_extensions/compass-960-plugin-0.10.4/stylesheets
  /home/master-d/compass.app/lib/ruby/compass_extensions/compass-h5bp-0.1.1/stylesheets
  /home/master-d/compass.app/lib/ruby/compass_extensions/compass-normalize-1.4.3/stylesheets
  /home/master-d/compass.app/lib/ruby/compass_extensions/bootstrap-sass-2.3.2.1/vendor/assets/stylesheets
  /home/master-d/compass.app/lib/ruby/compass_extensions/susy-1.0.9/sass
  /home/master-d/compass.app/lib/ruby/compass_extensions/zurb-foundation-4.3.1/scss
  Compass::SpriteImporter
  /home/master-d/vendor/assets/stylesheets)
2014-03-21 13:55:10 identical css/main.css 
2014-03-21 13:55:27 overwrite css/main.css 
2014-03-21 13:55:45 overwrite css/main.css 
2014-03-21 13:55:58 identical css/main.css 
2014-03-21 13:56:56 identical css/main.css 
2014-03-21 14:00:07 overwrite css/main.css 
2014-03-21 14:01:23 overwrite css/main.css 
2014-03-21 14:02:53 overwrite css/main.css 
2014-03-21 14:03:21 overwrite css/main.css 
2014-03-21 14:03:35 overwrite css/main.css 
2014-03-21 14:03:48 overwrite css/main.css 
2014-03-21 14:04:00 overwrite css/main.css 
2014-03-21 14:04:12 overwrite css/main.css 
2014-03-21 14:04:17 identical css/main.css 
2014-03-21 14:04:22 overwrite css/main.css 
2014-03-21 14:04:29 overwrite css/main.css 
2014-03-21 14:04:41 overwrite css/main.css 
2014-03-21 14:04:53 overwrite css/main.css 
2014-03-21 14:05:13 overwrite css/main.css 
2014-03-21 14:06:33 overwrite css/main.css 
2014-03-21 14:06:43 overwrite css/main.css 
2014-03-21 14:07:03 overwrite css/main.css 
2014-03-21 14:07:36 overwrite css/main.css 
2014-03-21 14:07:41 overwrite css/main.css 
2014-03-21 14:07:48 overwrite css/main.css 
2014-03-21 14:07:53 overwrite css/main.css 
2014-03-21 14:07:58 overwrite css/main.css 
2014-03-21 14:08:53 overwrite css/main.css 
2014-03-21 14:09:13 overwrite css/main.css 
2014-03-21 14:09:21 overwrite css/main.css 
2014-03-21 14:10:56 overwrite css/main.css 
2014-03-21 14:11:18 overwrite css/main.css 
2014-03-21 14:11:26 overwrite css/main.css 
2014-03-21 14:26:29     error css/scss/main.scss (Line 6 of css/scss/_dashboard.scss: Invalid CSS after ".panel-wrapper": expected "{", was "}")
2014-03-21 14:26:29 overwrite css/main.css 
2014-03-21 14:27:50 overwrite css/main.css 
2014-03-21 14:28:00 overwrite css/main.css 
2014-03-21 14:28:07 overwrite css/main.css 
2014-03-21 14:28:18 overwrite css/main.css 
2014-03-21 14:28:32 overwrite css/main.css 
2014-03-21 14:28:58 overwrite css/main.css 
2014-03-21 14:29:41 overwrite css/main.css 
2014-03-21 14:30:32 overwrite css/main.css 
2014-03-21 14:32:17 overwrite css/main.css 
2014-03-21 14:32:31 overwrite css/main.css 
2014-03-21 14:34:17 overwrite css/main.css 
2014-03-21 14:35:47 overwrite css/main.css 
2014-03-21 14:36:48 overwrite css/main.css 
2014-03-21 14:37:07 overwrite css/main.css 
2014-03-21 14:37:50 overwrite css/main.css 
2014-03-21 15:01:33 overwrite css/main.css 
2014-03-21 15:01:45 overwrite css/main.css 
2014-03-21 15:01:53 overwrite css/main.css 
2014-03-21 15:02:48 overwrite css/main.css 
2014-03-21 15:03:36 overwrite css/main.css 
2014-03-21 15:03:55     error css/scss/main.scss (Line 40 of css/scss/_dashboard.scss: Invalid CSS after "}": expected "}", was "")
2014-03-21 15:03:55 overwrite css/main.css 
2014-03-21 15:04:30 overwrite css/main.css 
2014-03-21 15:04:51 overwrite css/main.css 
2014-03-21 15:04:54 overwrite css/main.css 
2014-03-21 15:05:05 overwrite css/main.css 
2014-03-21 15:05:13 overwrite css/main.css 
2014-03-21 15:05:19 overwrite css/main.css 
2014-03-21 15:05:22 overwrite css/main.css 
2014-03-21 15:05:32 overwrite css/main.css 
2014-03-21 15:06:05 overwrite css/main.css 
2014-03-21 15:06:17 overwrite css/main.css 
2014-03-21 15:06:35 overwrite css/main.css 
2014-03-21 15:06:56 overwrite css/main.css 
2014-03-21 15:07:17 identical css/main.css 
2014-03-21 15:08:48 overwrite css/main.css 
2014-03-21 15:09:01 overwrite css/main.css 
2014-03-21 15:13:23 overwrite css/main.css 
2014-03-21 15:15:09 overwrite css/main.css 
2014-03-21 15:15:15 overwrite css/main.css 
2014-03-21 15:16:08 overwrite css/main.css 
2014-03-21 16:27:36 overwrite css/main.css 
2014-03-21 16:30:33 overwrite css/main.css 
2014-03-21 16:31:08 overwrite css/main.css 
2014-03-21 16:31:53 overwrite css/main.css 
2014-03-21 16:32:09 overwrite css/main.css 
2014-03-21 16:33:13 overwrite css/main.css 
2014-03-21 16:33:30 overwrite css/main.css 
2014-03-21 16:33:45 overwrite css/main.css 
2014-03-21 16:34:07 overwrite css/main.css 
2014-03-21 16:34:30 identical css/main.css 
2014-03-21 16:34:44 identical css/main.css 
2014-03-21 16:35:06 overwrite css/main.css 
2014-03-21 16:38:25 overwrite css/main.css 
2014-03-21 16:47:36 identical css/main.css 
2014-03-21 16:47:53 overwrite css/main.css 
2014-03-21 16:47:57 overwrite css/main.css 
2014-03-21 16:50:13 overwrite css/main.css 
2014-03-21 16:51:37 overwrite css/main.css 
2014-03-21 16:51:41 overwrite css/main.css 
2014-03-24 11:17:29 overwrite css/main.css 
2014-03-24 11:17:43 overwrite css/main.css 
2014-03-24 11:17:59 overwrite css/main.css 
2014-03-24 11:18:08 overwrite css/main.css 
2014-03-24 11:18:31 overwrite css/main.css 
2014-03-24 11:18:53 overwrite css/main.css 
2014-03-24 11:19:05 overwrite css/main.css 
2014-03-24 11:19:22 overwrite css/main.css 
2014-03-24 11:20:04 overwrite css/main.css 
2014-03-24 11:24:19 overwrite css/main.css 
2014-03-24 11:24:32 overwrite css/main.css 
2014-03-24 11:24:40 overwrite css/main.css 
2014-03-24 11:25:32 overwrite css/main.css 
2014-03-24 11:25:40 overwrite css/main.css 
2014-03-24 11:26:04 overwrite css/main.css 
2014-03-24 11:26:22 overwrite css/main.css 
2014-03-24 11:26:31 overwrite css/main.css 
2014-03-24 11:27:00 overwrite css/main.css 
2014-03-24 11:27:05 overwrite css/main.css 
2014-03-24 11:27:20 overwrite css/main.css 
2014-03-24 11:27:55 overwrite css/main.css 
2014-03-24 11:29:04 overwrite css/main.css 
2014-03-24 11:30:32 overwrite css/main.css 
2014-03-24 11:30:37 overwrite css/main.css 
2014-03-24 11:30:48 overwrite css/main.css 
2014-03-24 11:31:10 overwrite css/main.css 
2014-03-24 11:31:18 overwrite css/main.css 
2014-03-24 11:31:27 overwrite css/main.css 
2014-03-24 11:31:37 overwrite css/main.css 
2014-03-24 11:31:54 overwrite css/main.css 
2014-03-24 11:32:12 overwrite css/main.css 
2014-03-24 11:32:25 overwrite css/main.css 
2014-03-24 11:32:37 overwrite css/main.css 
2014-03-24 11:32:56 overwrite css/main.css 
2014-03-24 11:33:17 overwrite css/main.css 
2014-03-24 11:34:26 overwrite css/main.css 
2014-03-24 11:34:47 identical css/main.css 
2014-03-24 11:34:54 overwrite css/main.css 
2014-03-24 11:35:50 overwrite css/main.css 
2014-03-24 11:36:13 overwrite css/main.css 
2014-03-24 11:37:11 overwrite css/main.css 
2014-03-24 11:37:18 overwrite css/main.css 
2014-03-24 11:37:31 overwrite css/main.css 
2014-03-24 11:37:59 overwrite css/main.css 
2014-03-24 11:38:23 overwrite css/main.css 
2014-03-24 11:38:35 overwrite css/main.css 
2014-03-24 11:38:40 overwrite css/main.css 
2014-03-24 11:39:12 overwrite css/main.css 
2014-03-24 11:39:14 identical css/main.css 
2014-03-24 11:39:58 overwrite css/main.css 
2014-03-24 11:40:33 overwrite css/main.css 
2014-03-24 11:40:57 overwrite css/main.css 
2014-03-24 11:41:13 overwrite css/main.css 
2014-03-24 11:41:29 overwrite css/main.css 
2014-03-24 11:41:44 overwrite css/main.css 
2014-03-24 13:41:37 overwrite css/main.css 
2014-03-24 13:42:06 overwrite css/main.css 
2014-03-24 13:42:15 overwrite css/main.css 
2014-03-24 13:42:27 overwrite css/main.css 
2014-03-24 13:42:32 overwrite css/main.css 
2014-03-24 13:42:54 overwrite css/main.css 
2014-03-24 13:43:17 overwrite css/main.css 
2014-03-24 13:43:22 overwrite css/main.css 
2014-03-24 13:43:53 overwrite css/main.css 
2014-03-24 13:44:10 overwrite css/main.css 
2014-03-24 13:44:17 overwrite css/main.css 
2014-03-24 13:46:02 overwrite css/main.css 
2014-03-24 13:46:30 overwrite css/main.css 
2014-03-24 13:46:39 overwrite css/main.css 
2014-03-24 13:46:44 overwrite css/main.css 
2014-03-24 13:46:58 overwrite css/main.css 
2014-03-24 13:47:05 overwrite css/main.css 
2014-03-24 13:47:24 overwrite css/main.css 
2014-03-24 13:47:32 overwrite css/main.css 
2014-03-24 13:49:03 overwrite css/main.css 
2014-03-24 13:49:11 overwrite css/main.css 
2014-03-24 13:49:37 overwrite css/main.css 
2014-03-24 13:50:09 overwrite css/main.css 
2014-03-24 13:54:13 overwrite css/main.css 
2014-03-24 13:54:23 overwrite css/main.css 
2014-03-24 13:56:41 overwrite css/main.css 
2014-03-24 13:58:40 overwrite css/main.css 
2014-03-24 13:58:47 overwrite css/main.css 
2014-03-24 14:00:08 overwrite css/main.css 
2014-03-24 14:10:37 overwrite css/main.css 
2014-03-24 14:10:39 identical css/main.css 
2014-03-24 14:14:51 overwrite css/main.css 
2014-03-24 14:16:20 overwrite css/main.css 
2014-03-24 14:17:32 overwrite css/main.css 
2014-03-24 14:17:39 overwrite css/main.css 
2014-03-24 14:17:48 overwrite css/main.css 
2014-03-24 14:18:40 overwrite css/main.css 
2014-03-24 14:18:49 overwrite css/main.css 
2014-03-24 14:19:18 overwrite css/main.css 
2014-03-24 14:19:24 overwrite css/main.css 
2014-03-24 14:19:47 overwrite css/main.css 
2014-03-24 14:20:07 overwrite css/main.css 
2014-03-24 14:20:29 overwrite css/main.css 
2014-03-24 14:21:12 overwrite css/main.css 
2014-03-24 14:21:23 overwrite css/main.css 
2014-03-24 14:22:27     error css/scss/main.scss (Line 170 of css/scss/_header.scss: Invalid CSS after "...y:inline-block:": expected pseudoclass or pseudoelement, was "text-align:right;")
2014-03-24 14:22:27 overwrite css/main.css 
2014-03-24 14:22:34 overwrite css/main.css 
2014-03-24 14:24:29 overwrite css/main.css 
2014-03-24 14:24:36 overwrite css/main.css 
2014-03-24 14:25:26 overwrite css/main.css 
2014-03-24 14:25:56 overwrite css/main.css 
2014-03-24 15:24:14    remove .sass-cache/ 
2014-03-24 15:24:14    remove css/main.css 
2014-03-24 15:24:16    create css/main.css 
2014-03-24 15:48:53 overwrite css/main.css 
2014-03-24 15:48:56 overwrite css/main.css 
2014-03-24 15:49:39 overwrite css/main.css 
2014-03-24 15:50:18 overwrite css/main.css 
2014-03-24 15:50:27 overwrite css/main.css 
2014-03-24 15:51:35 identical css/main.css 
2014-03-24 15:53:36 overwrite css/main.css 
2014-03-24 15:53:43 overwrite css/main.css 
2014-03-24 15:53:56 overwrite css/main.css 
2014-03-24 15:54:03 overwrite css/main.css 
2014-03-24 15:54:41 overwrite css/main.css 
2014-03-24 15:55:12 overwrite css/main.css 
2014-03-24 16:02:16 overwrite css/main.css 
2014-03-24 16:06:01 overwrite css/main.css 
2014-03-24 16:06:38 overwrite css/main.css 
2014-03-24 16:06:52 overwrite css/main.css 
2014-03-24 16:07:02 overwrite css/main.css 
2014-03-24 16:07:12 overwrite css/main.css 
2014-03-24 16:07:54 overwrite css/main.css 
2014-03-24 16:08:02 overwrite css/main.css 
2014-03-24 16:08:09 overwrite css/main.css 
2014-03-24 16:08:47 overwrite css/main.css 
2014-03-24 16:09:43 overwrite css/main.css 
2014-03-24 16:09:52 overwrite css/main.css 
2014-03-24 16:10:03 overwrite css/main.css 
2014-03-24 16:10:12 overwrite css/main.css 
2014-03-24 16:10:30 overwrite css/main.css 
2014-03-24 16:10:35 overwrite css/main.css 
2014-03-24 16:10:37 overwrite css/main.css 
2014-03-24 16:10:45 overwrite css/main.css 
2014-03-24 16:10:56 overwrite css/main.css 
2014-03-24 16:11:09 overwrite css/main.css 
2014-03-24 16:11:17 overwrite css/main.css 
2014-03-24 16:11:24 overwrite css/main.css 
2014-03-24 16:11:26 overwrite css/main.css 
2014-03-24 16:11:37     error css/scss/main.scss (Line 123 of css/scss/_header.scss: Undefined variable: "$paddng".)
2014-03-24 16:11:37 overwrite css/main.css 
2014-03-24 16:11:41 overwrite css/main.css 
2014-03-24 16:11:49 overwrite css/main.css 
2014-03-24 16:11:58 overwrite css/main.css 
2014-03-24 16:12:05 overwrite css/main.css 
2014-03-24 16:12:12 overwrite css/main.css 
2014-03-24 16:12:22 overwrite css/main.css 
2014-03-24 16:13:21 overwrite css/main.css 
2014-03-24 16:13:46 overwrite css/main.css 
2014-03-24 16:14:48 overwrite css/main.css 
2014-03-24 16:15:08 overwrite css/main.css 
2014-03-24 16:15:38 identical css/main.css 
2014-03-24 16:15:45 identical css/main.css 
2014-03-24 16:16:02 overwrite css/main.css 
2014-03-24 16:16:41 overwrite css/main.css 
2014-03-24 16:16:53 overwrite css/main.css 
2014-03-24 16:17:07 overwrite css/main.css 
2014-03-24 16:27:33 overwrite css/main.css 
2014-03-24 16:27:51 overwrite css/main.css 
2014-03-24 16:28:11 overwrite css/main.css 
2014-03-24 16:29:01 overwrite css/main.css 
2014-03-24 16:29:22 overwrite css/main.css 
2014-03-24 16:53:59 overwrite css/main.css 
2014-03-24 16:56:11 overwrite css/main.css 
2014-03-24 16:56:20 overwrite css/main.css 
2014-03-24 16:56:36 overwrite css/main.css 
2014-03-24 16:56:55 overwrite css/main.css 
2014-03-24 16:57:14 overwrite css/main.css 
2014-03-24 16:57:41 overwrite css/main.css 
2014-03-24 16:57:49 overwrite css/main.css 
2014-03-24 16:58:01 overwrite css/main.css 
2014-03-24 17:00:01 overwrite css/main.css 
2014-03-24 17:00:10 overwrite css/main.css 
2014-03-24 17:00:25 overwrite css/main.css 
2014-03-24 17:00:27 identical css/main.css 
2014-03-24 17:24:50     error css/scss/main.scss (Line 230 of css/scss/_header.scss: Invalid CSS after "          z-index:": expected pseudoclass or pseudoelement, was " 50;")
2014-03-24 17:24:50 overwrite css/main.css 
2014-03-24 17:24:51     error css/scss/main.scss (Line 230 of css/scss/_header.scss: Invalid CSS after "          z-index:": expected pseudoclass or pseudoelement, was " 50;")
2014-03-24 17:24:51 identical css/main.css 
2014-03-24 17:24:58 overwrite css/main.css 
2014-03-25 10:00:54 overwrite css/main.css 
2014-03-25 10:01:13 overwrite css/main.css 
2014-03-25 10:01:24 overwrite css/main.css 
2014-03-25 10:01:30 overwrite css/main.css 
2014-03-25 10:01:38 overwrite css/main.css 
2014-03-25 10:01:46 overwrite css/main.css 
2014-03-25 10:02:01 overwrite css/main.css 
2014-03-25 10:02:24 overwrite css/main.css 
2014-03-25 10:02:56     error css/scss/main.scss (Line 279 of css/scss/_header.scss: Invalid CSS after "  }": expected selector or at-rule, was "}")
2014-03-25 10:02:56 overwrite css/main.css 
2014-03-25 10:03:11 overwrite css/main.css 
2014-03-25 10:03:29 overwrite css/main.css 
2014-03-25 10:03:36 overwrite css/main.css 
2014-03-25 10:04:18 overwrite css/main.css 
2014-03-25 10:04:38 overwrite css/main.css 
2014-03-25 10:04:58 overwrite css/main.css 
2014-03-25 10:05:12 overwrite css/main.css 
2014-03-25 10:05:18 overwrite css/main.css 
2014-03-25 10:05:45 overwrite css/main.css 
2014-03-25 10:05:58 overwrite css/main.css 
2014-03-25 10:08:23 overwrite css/main.css 
2014-03-25 10:08:34 overwrite css/main.css 
2014-03-25 10:10:33 overwrite css/main.css 
2014-03-25 10:15:34 overwrite css/main.css 
2014-03-25 10:15:49 overwrite css/main.css 
2014-03-25 10:16:07 overwrite css/main.css 
2014-03-25 10:16:15 overwrite css/main.css 
2014-03-25 10:16:29 overwrite css/main.css 
2014-03-25 10:16:37 overwrite css/main.css 
2014-03-25 10:18:10 overwrite css/main.css 
2014-03-25 10:18:12 overwrite css/main.css 
2014-03-25 10:18:18 overwrite css/main.css 
2014-03-25 10:18:33 overwrite css/main.css 
2014-03-25 10:18:42     error css/scss/main.scss (Line 98 of css/scss/_header.scss: Mixin opaque takes 0 arguments but 1 was passed.)
2014-03-25 10:18:42 overwrite css/main.css 
2014-03-25 10:18:48 overwrite css/main.css 
2014-03-25 10:19:16 overwrite css/main.css 
2014-03-25 10:20:27 overwrite css/main.css 
2014-03-25 10:20:36 overwrite css/main.css 
2014-03-25 10:20:47 overwrite css/main.css 
2014-03-25 10:20:54 overwrite css/main.css 
2014-03-25 10:21:00 overwrite css/main.css 
2014-03-25 10:21:10 overwrite css/main.css 
2014-03-25 10:23:16 overwrite css/main.css 
2014-03-25 10:23:39 overwrite css/main.css 
2014-03-25 10:23:46 overwrite css/main.css 
2014-03-25 10:23:53 overwrite css/main.css 
2014-03-25 10:24:06 overwrite css/main.css 
2014-03-25 10:24:23 overwrite css/main.css 
2014-03-25 10:24:29 overwrite css/main.css 
2014-03-25 10:24:44 overwrite css/main.css 
2014-03-25 10:26:47 overwrite css/main.css 
2014-03-25 10:28:19 overwrite css/main.css 
2014-03-25 10:28:41 overwrite css/main.css 
2014-03-25 10:29:07 overwrite css/main.css 
2014-03-25 10:29:14 overwrite css/main.css 
2014-03-25 10:30:04 overwrite css/main.css 
2014-03-25 10:30:36 overwrite css/main.css 
2014-03-25 10:34:55 overwrite css/main.css 
2014-03-25 10:35:00 overwrite css/main.css 
2014-03-25 10:35:16 overwrite css/main.css 
2014-03-25 10:35:29     error css/scss/main.scss (Line 136 of css/scss/_dashboard.scss: Undefined variable: "$p-size-2".)
2014-03-25 10:35:29 overwrite css/main.css 
2014-03-25 10:35:33 overwrite css/main.css 
2014-03-25 10:35:44 identical css/main.css 
2014-03-25 10:35:49 overwrite css/main.css 
2014-03-25 10:36:17 overwrite css/main.css 
2014-03-25 10:36:26 overwrite css/main.css 
2014-03-25 10:36:57 overwrite css/main.css 
2014-03-25 10:37:03 overwrite css/main.css 
2014-03-25 10:37:09 overwrite css/main.css 
2014-03-25 10:37:13 overwrite css/main.css 
2014-03-25 10:37:45 overwrite css/main.css 
2014-03-25 10:37:46 identical css/main.css 
2014-03-25 10:38:22 overwrite css/main.css 
2014-03-25 11:21:30 overwrite css/main.css 
2014-03-25 12:06:38 overwrite css/main.css 
2014-03-25 12:06:50 overwrite css/main.css 
2014-03-25 12:07:18 overwrite css/main.css 
2014-03-25 12:07:34 overwrite css/main.css 
2014-03-25 12:09:19 overwrite css/main.css 
2014-03-25 13:30:39 overwrite css/main.css 
2014-03-25 13:31:35 overwrite css/main.css 
2014-03-25 14:02:55 overwrite css/main.css 
2014-03-25 14:03:36 overwrite css/main.css 
2014-03-25 14:03:44 overwrite css/main.css 
2014-03-25 14:03:52 overwrite css/main.css 
2014-03-25 14:05:13 overwrite css/main.css 
2014-03-25 14:07:04 overwrite css/main.css 
2014-03-25 14:07:56 overwrite css/main.css 
2014-03-25 14:10:48 overwrite css/main.css 
2014-03-25 14:10:53 overwrite css/main.css 
2014-03-25 14:10:57 overwrite css/main.css 
2014-03-25 14:11:09 overwrite css/main.css 
2014-03-25 14:11:31 overwrite css/main.css 
2014-03-25 14:11:40 overwrite css/main.css 
2014-03-25 14:11:50 overwrite css/main.css 
2014-03-25 14:11:54 overwrite css/main.css 
2014-03-25 14:12:00 overwrite css/main.css 
2014-03-25 14:12:36 overwrite css/main.css 
2014-03-25 14:12:52 overwrite css/main.css 
2014-03-25 14:13:09 overwrite css/main.css 
2014-03-25 14:13:25 overwrite css/main.css 
2014-03-25 14:13:28 overwrite css/main.css 
2014-03-25 14:13:46 overwrite css/main.css 
2014-03-25 14:13:51 overwrite css/main.css 
2014-03-25 14:13:59 overwrite css/main.css 
2014-03-25 14:14:41 overwrite css/main.css 
2014-03-25 14:14:48 overwrite css/main.css 
2014-03-25 14:17:50 identical css/main.css 
2014-03-25 14:22:26 overwrite css/main.css 
2014-03-25 14:22:30 overwrite css/main.css 
2014-03-25 14:22:52 overwrite css/main.css 
2014-03-25 15:12:00 identical css/main.css 
2014-03-25 15:12:10 overwrite css/main.css 
2014-03-25 15:15:50 overwrite css/main.css 
2014-03-25 15:15:57 overwrite css/main.css 
2014-03-25 15:36:43 overwrite css/main.css 
2014-03-25 15:36:55 overwrite css/main.css 
2014-03-25 15:42:07 overwrite css/main.css 
2014-03-25 15:42:20 overwrite css/main.css 
2014-03-25 15:42:30 overwrite css/main.css 
2014-03-25 15:42:46 overwrite css/main.css 
2014-03-25 15:43:01 overwrite css/main.css 
2014-03-25 15:43:06 overwrite css/main.css 
2014-03-25 15:43:22 overwrite css/main.css 
2014-03-25 15:47:51 overwrite css/main.css 
2014-03-25 15:48:06 overwrite css/main.css 
2014-03-25 15:52:31 overwrite css/main.css 
2014-03-25 17:03:16 overwrite css/main.css 
2014-03-25 17:03:37 overwrite css/main.css 
